%YAML 1.1
%TAG !u! tag:unity3d.com,2011:
--- !u!29 &1
OcclusionCullingSettings:
  m_ObjectHideFlags: 0
  serializedVersion: 2
  m_OcclusionBakeSettings:
    smallestOccluder: 5
    smallestHole: 0.25
    backfaceThreshold: 100
  m_SceneGUID: 00000000000000000000000000000000
  m_OcclusionCullingData: {fileID: 0}
--- !u!104 &2
RenderSettings:
  m_ObjectHideFlags: 0
  serializedVersion: 9
  m_Fog: 0
  m_FogColor: {r: 0.5, g: 0.5, b: 0.5, a: 1}
  m_FogMode: 3
  m_FogDensity: 0.01
  m_LinearFogStart: 0
  m_LinearFogEnd: 300
  m_AmbientSkyColor: {r: 0.212, g: 0.227, b: 0.259, a: 1}
  m_AmbientEquatorColor: {r: 0.114, g: 0.125, b: 0.133, a: 1}
  m_AmbientGroundColor: {r: 0.047, g: 0.043, b: 0.035, a: 1}
  m_AmbientIntensity: 1
  m_AmbientMode: 0
  m_SubtractiveShadowColor: {r: 0.42, g: 0.478, b: 0.627, a: 1}
  m_SkyboxMaterial: {fileID: 10304, guid: 0000000000000000f000000000000000, type: 0}
  m_HaloStrength: 0.5
  m_FlareStrength: 1
  m_FlareFadeSpeed: 3
  m_HaloTexture: {fileID: 0}
  m_SpotCookie: {fileID: 10001, guid: 0000000000000000e000000000000000, type: 0}
  m_DefaultReflectionMode: 0
  m_DefaultReflectionResolution: 128
  m_ReflectionBounces: 1
  m_ReflectionIntensity: 1
  m_CustomReflection: {fileID: 0}
  m_Sun: {fileID: 0}
  m_IndirectSpecularColor: {r: 0, g: 0, b: 0, a: 1}
  m_UseRadianceAmbientProbe: 0
--- !u!157 &3
LightmapSettings:
  m_ObjectHideFlags: 0
  serializedVersion: 11
  m_GIWorkflowMode: 0
  m_GISettings:
    serializedVersion: 2
    m_BounceScale: 1
    m_IndirectOutputScale: 1
    m_AlbedoBoost: 1
    m_EnvironmentLightingMode: 0
    m_EnableBakedLightmaps: 1
    m_EnableRealtimeLightmaps: 1
  m_LightmapEditorSettings:
    serializedVersion: 12
    m_Resolution: 2
    m_BakeResolution: 40
    m_AtlasSize: 1024
    m_AO: 0
    m_AOMaxDistance: 1
    m_CompAOExponent: 0
    m_CompAOExponentDirect: 0
    m_ExtractAmbientOcclusion: 0
    m_Padding: 2
    m_LightmapParameters: {fileID: 0}
    m_LightmapsBakeMode: 1
    m_TextureCompression: 1
    m_FinalGather: 0
    m_FinalGatherFiltering: 1
    m_FinalGatherRayCount: 1024
    m_ReflectionCompression: 2
    m_MixedBakeMode: 1
    m_BakeBackend: 0
    m_PVRSampling: 1
    m_PVRDirectSampleCount: 32
    m_PVRSampleCount: 500
    m_PVRBounces: 2
    m_PVREnvironmentSampleCount: 500
    m_PVREnvironmentReferencePointCount: 2048
    m_PVRFilteringMode: 2
    m_PVRDenoiserTypeDirect: 0
    m_PVRDenoiserTypeIndirect: 0
    m_PVRDenoiserTypeAO: 0
    m_PVRFilterTypeDirect: 0
    m_PVRFilterTypeIndirect: 0
    m_PVRFilterTypeAO: 0
    m_PVREnvironmentMIS: 0
    m_PVRCulling: 1
    m_PVRFilteringGaussRadiusDirect: 1
    m_PVRFilteringGaussRadiusIndirect: 5
    m_PVRFilteringGaussRadiusAO: 2
    m_PVRFilteringAtrousPositionSigmaDirect: 0.5
    m_PVRFilteringAtrousPositionSigmaIndirect: 2
    m_PVRFilteringAtrousPositionSigmaAO: 1
    m_ExportTrainingData: 0
    m_TrainingDataDestination: TrainingData
    m_LightProbeSampleCountMultiplier: 4
  m_LightingDataAsset: {fileID: 0}
  m_UseShadowmask: 0
--- !u!196 &4
NavMeshSettings:
  serializedVersion: 2
  m_ObjectHideFlags: 0
  m_BuildSettings:
    serializedVersion: 2
    agentTypeID: 0
    agentRadius: 0.5
    agentHeight: 2
    agentSlope: 45
    agentClimb: 0.4
    ledgeDropHeight: 0
    maxJumpAcrossDistance: 0
    minRegionArea: 2
    manualCellSize: 0
    cellSize: 0.16666667
    manualTileSize: 0
    tileSize: 256
    accuratePlacement: 0
    debug:
      m_Flags: 0
  m_NavMeshData: {fileID: 0}
--- !u!1 &121966930
GameObject:
  m_ObjectHideFlags: 0
  m_CorrespondingSourceObject: {fileID: 0}
  m_PrefabInstance: {fileID: 0}
  m_PrefabAsset: {fileID: 0}
  serializedVersion: 6
  m_Component:
  - component: {fileID: 121966933}
  - component: {fileID: 121966934}
  - component: {fileID: 121966935}
  - component: {fileID: 121966932}
  - component: {fileID: 121966931}
  m_Layer: 8
  m_Name: Emitter A
  m_TagString: Untagged
  m_Icon: {fileID: 0}
  m_NavMeshLayer: 0
  m_StaticEditorFlags: 0
  m_IsActive: 1
--- !u!114 &121966931
MonoBehaviour:
  m_ObjectHideFlags: 0
  m_CorrespondingSourceObject: {fileID: 0}
  m_PrefabInstance: {fileID: 0}
  m_PrefabAsset: {fileID: 0}
  m_GameObject: {fileID: 121966930}
  m_Enabled: 1
  m_EditorHideFlags: 0
  m_Script: {fileID: 11500000, guid: b03f3cb7478b24bb1818eb9f51b88bcf, type: 3}
  m_Name: 
  m_EditorClassIdentifier: 
  grad:
    serializedVersion: 2
    key0: {r: 1, g: 0.9654912, b: 0, a: 1}
    key1: {r: 1, g: 0.80961907, b: 0.007843137, a: 1}
    key2: {r: 1, g: 0.54693955, b: 0.37254906, a: 0}
    key3: {r: 1, g: 0, b: 0.8296585, a: 0}
    key4: {r: 0.61980397, g: 0.10012458, b: 0.8490566, a: 0}
    key5: {r: 0, g: 0.59607965, b: 0.8584906, a: 0}
    key6: {r: 0, g: 0.5862069, b: 1, a: 0}
    key7: {r: 0, g: 0, b: 0, a: 0}
    ctime0: 0
    ctime1: 19661
    ctime2: 26214
    ctime3: 32768
    ctime4: 39321
    ctime5: 45875
    ctime6: 65535
    ctime7: 0
    atime0: 0
    atime1: 65535
    atime2: 0
    atime3: 0
    atime4: 0
    atime5: 0
    atime6: 0
    atime7: 0
    m_Mode: 0
    m_NumColorKeys: 7
    m_NumAlphaKeys: 2
--- !u!114 &121966932
MonoBehaviour:
  m_ObjectHideFlags: 0
  m_CorrespondingSourceObject: {fileID: 0}
  m_PrefabInstance: {fileID: 0}
  m_PrefabAsset: {fileID: 0}
  m_GameObject: {fileID: 121966930}
  m_Enabled: 1
  m_EditorHideFlags: 0
  m_Script: {fileID: 11500000, guid: 748587b7cb89947cdb69eed6554256f6, type: 3}
  m_Name: 
  m_EditorClassIdentifier: 
  emitter: {fileID: 121966935}
  color: {r: 1, g: 1, b: 1, a: 1}
  particleSize: 0.1
  distribution:
  - position: {x: -0.35, y: 0, z: 0}
    velocity: {x: 0, y: 0, z: 1}
    color: {r: 1, g: 1, b: 1, a: 1}
  - position: {x: -0.24, y: 0, z: 0}
    velocity: {x: 0, y: 0, z: 1}
    color: {r: 1, g: 1, b: 1, a: 1}
  - position: {x: -0.13, y: 0, z: 0}
    velocity: {x: 0, y: 0, z: 1}
    color: {r: 1, g: 1, b: 1, a: 1}
  - position: {x: -0.019999996, y: 0, z: 0}
    velocity: {x: 0, y: 0, z: 1}
    color: {r: 1, g: 1, b: 1, a: 1}
  - position: {x: 0.09, y: 0, z: 0}
    velocity: {x: 0, y: 0, z: 1}
    color: {r: 1, g: 1, b: 1, a: 1}
  - position: {x: 0.2, y: 0, z: 0}
    velocity: {x: 0, y: 0, z: 1}
    color: {r: 1, g: 1, b: 1, a: 1}
  - position: {x: 0.31, y: 0, z: 0}
    velocity: {x: 0, y: 0, z: 1}
    color: {r: 1, g: 1, b: 1, a: 1}
  lenght: 0.7
  radialVelocity: 0
--- !u!4 &121966933
Transform:
  m_ObjectHideFlags: 0
  m_CorrespondingSourceObject: {fileID: 0}
  m_PrefabInstance: {fileID: 0}
  m_PrefabAsset: {fileID: 0}
  m_GameObject: {fileID: 121966930}
  m_LocalRotation: {x: -0.5, y: -0.5, z: 0.5, w: 0.5}
  m_LocalPosition: {x: 0, y: -0.35, z: 0}
  m_LocalScale: {x: 1, y: 1, z: 1}
  m_Children: []
  m_Father: {fileID: 842120804}
  m_RootOrder: 0
  m_LocalEulerAnglesHint: {x: 0, y: -90, z: 90}
--- !u!114 &121966934
MonoBehaviour:
  m_ObjectHideFlags: 0
  m_CorrespondingSourceObject: {fileID: 0}
  m_PrefabInstance: {fileID: 0}
  m_PrefabAsset: {fileID: 0}
  m_GameObject: {fileID: 121966930}
  m_Enabled: 1
  m_EditorHideFlags: 0
  m_Script: {fileID: 11500000, guid: c8b45ebbf86be4df6b0e6cd933812af2, type: 3}
  m_Name: 
  m_EditorClassIdentifier: 
  render: 1
  shader: {fileID: 4800000, guid: 801733041f66b49e1b3c2101471db877, type: 3}
  particleColor: {r: 1, g: 1, b: 1, a: 1}
  radiusScale: 1
--- !u!114 &121966935
MonoBehaviour:
  m_ObjectHideFlags: 0
  m_CorrespondingSourceObject: {fileID: 0}
  m_PrefabInstance: {fileID: 0}
  m_PrefabAsset: {fileID: 0}
  m_GameObject: {fileID: 121966930}
  m_Enabled: 1
  m_EditorHideFlags: 0
  m_Script: {fileID: 11500000, guid: 78c37f4b1f0174c6ebfdf0e7b8af64a3, type: 3}
  m_Name: 
  m_EditorClassIdentifier: 
  m_CollisionMaterial: {fileID: 0}
  m_SurfaceCollisions: 0
  emitterBlueprint: {fileID: 11400000, guid: c423c2b36c980458ba295244df149b85, type: 2}
  emissionMethod: 0
  minPoolSize: 0.5
  speed: 3
  lifespan: 50
  randomVelocity: 0
  useShapeColor: 0
  emitterShapes:
  - {fileID: 121966932}
  life:
  - 50
  - 50
  - 50
  - 50
  - 50
  - 50
  - 50
  - 50
  - 50
  - 50
  - 50
  - 50
  - 50
  - 50
  - 50
  - 50
  - 50
  - 50
  - 50
  - 50
  - 50
  - 50
  - 50
  - 50
  - 50
  - 50
  - 50
  - 50
  - 50
  - 50
  - 50
  - 50
  - 50
  - 50
  - 50
  - 50
  - 50
  - 50
  - 50
  - 50
  - 50
  - 50
  - 50
  - 50
  - 50
  - 50
  - 50
  - 50
  - 50
  - 50
  - 50
  - 50
  - 50
  - 50
  - 50
  - 50
  - 50
  - 50
  - 50
  - 50
  - 50
  - 50
  - 50
  - 50
  - 50
  - 50
  - 50
  - 50
  - 50
  - 50
  - 50
  - 50
  - 50
  - 50
  - 50
  - 50
  - 50
  - 50
  - 50
  - 50
  - 50
  - 50
  - 50
  - 50
  - 50
  - 50
  - 50
  - 50
  - 50
  - 50
  - 50
  - 50
  - 50
  - 50
  - 50
  - 50
  - 50
  - 50
  - 50
  - 50
  - 50
  - 50
  - 50
  - 50
  - 50
  - 50
  - 50
  - 50
  - 50
  - 50
  - 50
  - 50
  - 50
  - 50
  - 50
  - 50
  - 50
  - 50
  - 50
  - 50
  - 50
  - 50
  - 50
  - 50
  - 50
  - 50
  - 50
  - 50
  - 50
  - 50
  - 50
  - 50
  - 50
  - 50
  - 50
  - 50
  - 50
  - 50
  - 50
  - 50
  - 50
  - 50
  - 50
  - 50
  - 50
  - 50
  - 50
  - 50
  - 50
  - 50
  - 50
  - 50
  - 50
  - 50
  - 50
  - 50
  - 50
  - 50
  - 50
  - 50
  - 50
  - 50
  - 50
  - 50
  - 50
  - 50
  - 50
  - 50
  - 50
  - 50
  - 50
  - 50
  - 50
  - 50
  - 50
  - 50
  - 50
  - 50
  - 50
  - 50
  - 50
  - 50
  - 50
  - 50
  - 50
  - 50
  - 50
  - 50
  - 50
  - 50
  - 50
  - 50
  - 50
  - 50
  - 50
  - 50
  - 50
  - 50
  - 50
  - 50
  - 50
  - 50
  - 50
  - 50
  - 50
  - 50
  - 50
  - 50
  - 50
  - 50
  - 50
  - 50
  - 50
  - 50
  - 50
  - 50
  - 50
  - 50
  - 50
  - 50
  - 50
  - 50
  - 50
  - 50
  - 50
  - 50
  - 50
  - 50
  - 50
  - 50
  - 50
  - 50
  - 50
  - 50
  - 50
  - 50
  - 50
  - 50
  - 50
  - 50
  - 50
  - 50
  - 50
  - 50
  - 50
  - 50
  - 50
  - 50
  - 50
  - 50
  - 50
  - 50
  - 50
  - 50
  - 50
  - 50
  - 50
  - 50
  - 50
  - 50
  - 50
  - 50
  - 50
  - 50
  - 50
  - 50
  - 50
  - 50
  - 50
  - 50
  - 50
  - 50
  - 50
  - 50
  - 50
  - 50
  - 50
  - 50
  - 50
  - 50
  - 50
  - 50
  - 50
  - 50
  - 50
  - 50
  - 50
  - 50
  - 50
  - 50
  - 50
  - 50
  - 50
  - 50
  - 50
  - 50
  - 50
  - 50
  - 50
  - 50
  - 50
  - 50
  - 50
  - 50
  - 50
  - 50
  - 50
  - 50
  - 50
  - 50
  - 50
  - 50
  - 50
  - 50
  - 50
  - 50
  - 50
  - 50
  - 50
  - 50
  - 50
  - 50
  - 50
  - 50
  - 50
  - 50
  - 50
  - 50
  - 50
  - 50
  - 50
  - 50
  - 50
  - 50
  - 50
  - 50
  - 50
  - 50
  - 50
  - 50
  - 50
  - 50
  - 50
  - 50
  - 50
  - 50
  - 50
  - 50
  - 50
  - 50
  - 50
  - 50
  - 50
  - 50
  - 50
  - 50
  - 50
  - 50
  - 50
  - 50
  - 50
  - 50
  - 50
  - 50
  - 50
  - 50
  - 50
  - 50
  - 50
  - 50
  - 50
  - 50
  - 50
  - 50
  - 50
  - 50
  - 50
  - 50
  - 50
  - 50
  - 50
  - 50
  - 50
  - 50
  - 50
  - 50
  - 50
  - 50
  - 50
  - 50
  - 50
  - 50
  - 50
  - 50
  - 50
  - 50
  - 50
  - 50
  - 50
  - 50
  - 50
  - 50
  - 50
  - 50
  - 50
  - 50
  - 50
  - 50
  - 50
  - 50
  - 50
  - 50
  - 50
  - 50
  - 50
  - 50
  - 50
  - 50
  - 50
  - 50
  - 50
  - 50
  - 50
  - 50
  - 50
  - 50
  - 50
  - 50
  - 50
  - 50
  - 50
  - 50
  - 50
  - 50
  - 50
  - 50
  - 50
  - 50
  - 50
  - 50
  - 50
  - 50
  - 50
  - 50
  - 50
  - 50
  - 50
  - 50
  - 50
  - 50
  - 50
  - 50
  - 50
  - 50
  - 50
  - 50
  - 50
  - 50
  - 50
  - 50
  - 50
  - 50
  - 50
  - 50
  - 50
  - 50
  - 50
  - 50
  - 50
  - 50
  - 50
  - 50
  - 50
  - 50
  - 50
  - 50
  - 50
  - 50
  - 50
  - 50
  - 50
  - 50
  - 50
  - 50
  - 50
  - 50
  - 50
  - 50
  - 50
  - 50
  - 50
  - 50
  - 50
  - 50
  - 50
  - 50
  - 50
  - 50
  - 50
  - 50
  - 50
  - 50
  - 50
  - 50
  - 50
  - 50
  - 50
  - 50
  - 50
  - 50
  - 50
  - 50
  - 50
  - 50
  - 50
  - 50
  - 50
  - 50
  - 50
  - 50
  - 50
  - 50
  - 50
  - 50
  - 50
  - 50
  - 50
  - 50
  - 50
  - 50
  - 50
  - 50
  - 50
  - 50
  - 50
  - 50
  - 50
  - 50
  - 50
  - 50
  - 50
  - 50
  - 50
  - 50
  - 50
  - 50
  - 50
  - 50
  - 50
  - 50
  - 50
  - 50
  - 50
  - 50
  - 50
  - 50
  - 50
  - 50
  - 50
  - 50
  - 50
  - 50
  - 50
  - 50
  - 50
  - 50
  - 50
  - 50
  - 50
  - 50
  - 50
  - 50
  - 50
  - 50
  - 50
  - 50
  - 50
  - 50
  - 50
  - 50
  - 50
  - 50
  - 50
  - 50
  - 50
  - 50
  - 50
  - 50
  - 50
  - 50
  - 50
  - 50
  - 50
  - 50
  - 50
  - 50
  - 50
  - 50
  - 50
  - 50
  - 50
  - 50
  - 50
  - 50
  - 50
  - 50
  - 50
  - 50
  - 50
  - 50
  - 50
  - 50
  - 50
  - 50
  - 50
  - 50
  - 50
  - 50
  - 50
  - 50
  - 50
  - 50
  - 50
  - 50
  - 50
  - 50
  - 50
  - 50
  - 50
  - 50
  - 50
  - 50
  - 50
  - 50
  - 50
  - 50
  - 50
  - 50
  - 50
  - 50
  - 50
  - 50
  - 50
  - 50
  - 50
  - 50
  - 50
  - 50
  - 50
  - 50
  - 50
  - 50
  - 50
  - 50
  - 50
  - 50
  - 50
  - 50
  - 50
  - 50
  - 50
  - 50
  - 50
  - 50
  - 50
  - 50
  - 50
  - 50
  - 50
  - 50
  - 50
  - 50
  - 50
  - 50
  - 50
  - 50
  - 50
  - 50
  - 50
  - 50
  - 50
  - 50
  - 50
  - 50
  - 50
  - 50
  - 50
  - 50
  - 50
  - 50
  - 50
  - 50
  - 50
  - 50
  - 50
  - 50
  - 50
  - 50
  - 50
  - 50
  - 50
  - 50
  - 50
  - 50
  - 50
  - 50
  - 50
  - 50
  - 50
  - 50
  - 50
  - 50
  - 50
  - 50
  - 50
  - 50
  - 50
  - 50
  - 50
  - 50
  - 50
  - 50
  - 50
  - 50
  - 50
  - 50
  - 50
  - 50
  - 50
  - 50
  - 50
  - 50
  - 50
  - 50
  - 50
  - 50
  - 50
  - 50
  - 50
  - 50
  - 50
  - 50
  - 50
  - 50
  - 50
  - 50
  - 50
  - 50
  - 50
  - 50
  - 50
  - 50
  - 50
  - 50
  - 50
  - 50
  - 50
  - 50
  - 50
  - 50
  - 50
  - 50
  - 50
  - 50
  - 50
  - 50
  - 50
  - 50
  - 50
  - 50
  - 50
  - 50
  - 50
  - 50
  - 50
  - 50
  - 50
  - 50
  - 50
  - 50
  - 50
  - 50
  - 50
  - 50
  - 50
  - 50
  - 50
  - 50
  - 50
  - 50
  - 50
  - 50
  - 50
  - 50
  - 50
  - 50
  - 50
  - 50
  - 50
  - 50
  - 50
  - 50
  - 50
  - 50
  - 50
  - 50
  - 50
  - 50
  - 50
  - 50
  - 50
  - 50
  - 50
  - 50
  - 50
  - 50
  - 50
  - 50
  - 50
  - 50
  - 50
  - 50
  - 50
  - 50
  - 50
  - 50
  - 50
  - 50
  - 50
  - 50
  - 50
  - 50
  - 50
  - 50
  - 50
  - 50
  - 50
  - 50
  - 50
  - 50
  - 50
  - 50
  - 50
  - 50
  - 50
  - 50
  - 50
  - 50
  - 50
  - 50
  - 50
  - 50
  - 50
  - 50
  - 50
  - 50
  - 50
  - 50
  - 50
  - 50
  - 50
  - 50
  - 50
  - 50
  - 50
  - 50
  - 50
  - 50
  - 50
  - 50
  - 50
  - 50
  - 50
  - 50
  - 50
  - 50
  - 50
  - 50
  - 50
  - 50
  - 50
  - 50
  - 50
  - 50
  - 50
  - 50
  - 50
  - 50
  - 50
  - 50
  - 50
  - 50
  - 50
  - 50
  - 50
  - 50
  - 50
  - 50
  - 50
  - 50
  - 50
  - 50
  - 50
  - 50
  - 50
  - 50
  - 50
  - 50
  - 50
  - 50
  - 50
  - 50
  - 50
  - 50
  - 50
  - 50
  - 50
  - 50
  - 50
  - 50
  - 50
  - 50
  - 50
  - 50
  - 50
  - 50
  - 50
  - 50
  - 50
  - 50
  - 50
  - 50
  - 50
  - 50
  - 50
  - 50
  - 50
  - 50
  - 50
  - 50
  - 50
  - 50
  - 50
  - 50
  - 50
  - 50
  - 50
  - 50
  - 50
  - 50
  - 50
  - 50
  - 50
  - 50
  - 50
  - 50
  - 50
  - 50
  - 50
  - 50
  - 50
  - 50
  - 50
  - 50
  - 50
  - 50
  - 50
  - 50
  - 50
  - 50
  - 50
  - 50
  - 50
  - 50
  - 50
  - 50
  - 50
  - 50
  - 50
  - 50
  - 50
  - 50
  - 50
  - 50
  - 50
  - 50
  - 50
  - 50
  - 50
  - 50
  - 50
  - 50
  - 50
  - 50
  - 50
  - 50
  - 50
  - 50
  - 50
  - 50
--- !u!1 &335578778
GameObject:
  m_ObjectHideFlags: 0
  m_CorrespondingSourceObject: {fileID: 0}
  m_PrefabInstance: {fileID: 0}
  m_PrefabAsset: {fileID: 0}
  serializedVersion: 6
  m_Component:
  - component: {fileID: 335578780}
  - component: {fileID: 335578779}
  - component: {fileID: 335578784}
  - component: {fileID: 335578781}
  m_Layer: 11
  m_Name: Solver
  m_TagString: Untagged
  m_Icon: {fileID: 0}
  m_NavMeshLayer: 0
  m_StaticEditorFlags: 0
  m_IsActive: 1
--- !u!114 &335578779
MonoBehaviour:
  m_ObjectHideFlags: 0
  m_CorrespondingSourceObject: {fileID: 0}
  m_PrefabInstance: {fileID: 0}
  m_PrefabAsset: {fileID: 0}
  m_GameObject: {fileID: 335578778}
  m_Enabled: 1
  m_EditorHideFlags: 0
  m_Script: {fileID: 11500000, guid: 9d174fab52f0c4b8399f25d5c3ea524c, type: 3}
  m_Name: 
  m_EditorClassIdentifier: 
  simulateWhenInvisible: 1
  m_Backend: 1
  parameters:
    mode: 1
    interpolation: 1
    gravity: {x: 0, y: -6, z: 0}
    damping: 0
    maxAnisotropy: 3
    sleepThreshold: 0
    collisionMargin: 0.02
    maxDepenetration: 5
    continuousCollisionDetection: 1
    shockPropagation: 0
    surfaceCollisionIterations: 8
    surfaceCollisionTolerance: 0.005
  worldLinearInertiaScale: 0
  worldAngularInertiaScale: 0
  distanceConstraintParameters:
    evaluationOrder: 0
    iterations: 2
    SORFactor: 1
    enabled: 0
  bendingConstraintParameters:
    evaluationOrder: 1
    iterations: 1
    SORFactor: 1
    enabled: 0
  particleCollisionConstraintParameters:
    evaluationOrder: 0
    iterations: 6
    SORFactor: 1
    enabled: 0
  particleFrictionConstraintParameters:
    evaluationOrder: 1
    iterations: 3
    SORFactor: 1
    enabled: 1
  collisionConstraintParameters:
    evaluationOrder: 0
    iterations: 1
    SORFactor: 1
    enabled: 1
  frictionConstraintParameters:
    evaluationOrder: 1
    iterations: 3
    SORFactor: 1
    enabled: 1
  skinConstraintParameters:
    evaluationOrder: 0
    iterations: 3
    SORFactor: 1
    enabled: 0
  volumeConstraintParameters:
    evaluationOrder: 1
    iterations: 3
    SORFactor: 1
    enabled: 0
  shapeMatchingConstraintParameters:
    evaluationOrder: 1
    iterations: 3
    SORFactor: 1
    enabled: 0
  tetherConstraintParameters:
    evaluationOrder: 1
    iterations: 2
    SORFactor: 1
    enabled: 0
  pinConstraintParameters:
    evaluationOrder: 1
    iterations: 3
    SORFactor: 1
    enabled: 0
  stitchConstraintParameters:
    evaluationOrder: 1
    iterations: 2
    SORFactor: 1
    enabled: 0
  densityConstraintParameters:
    evaluationOrder: 1
    iterations: 6
    SORFactor: 1
    enabled: 1
  stretchShearConstraintParameters:
    evaluationOrder: 0
    iterations: 3
    SORFactor: 1
    enabled: 0
  bendTwistConstraintParameters:
    evaluationOrder: 0
    iterations: 3
    SORFactor: 1
    enabled: 0
  chainConstraintParameters:
    evaluationOrder: 0
    iterations: 3
    SORFactor: 1
    enabled: 0
--- !u!4 &335578780
Transform:
  m_ObjectHideFlags: 0
  m_CorrespondingSourceObject: {fileID: 0}
  m_PrefabInstance: {fileID: 0}
  m_PrefabAsset: {fileID: 0}
  m_GameObject: {fileID: 335578778}
  m_LocalRotation: {x: 0, y: 0, z: 0, w: 1}
  m_LocalPosition: {x: 0, y: 0, z: 0}
  m_LocalScale: {x: 1, y: 1, z: 1}
  m_Children:
  - {fileID: 842120804}
  m_Father: {fileID: 0}
  m_RootOrder: 3
  m_LocalEulerAnglesHint: {x: 0, y: 0, z: 0}
--- !u!114 &335578781
MonoBehaviour:
  m_ObjectHideFlags: 0
  m_CorrespondingSourceObject: {fileID: 0}
  m_PrefabInstance: {fileID: 0}
  m_PrefabAsset: {fileID: 0}
  m_GameObject: {fileID: 335578778}
  m_Enabled: 1
  m_EditorHideFlags: 0
  m_Script: {fileID: 11500000, guid: 1d9704d540ac448439a425526f6b2986, type: 3}
  m_Name: 
  m_EditorClassIdentifier: 
  solvers:
  - {fileID: 335578779}
  substeps: 1
--- !u!114 &335578784
MonoBehaviour:
  m_ObjectHideFlags: 0
  m_CorrespondingSourceObject: {fileID: 0}
  m_PrefabInstance: {fileID: 0}
  m_PrefabAsset: {fileID: 0}
  m_GameObject: {fileID: 335578778}
  m_Enabled: 0
  m_EditorHideFlags: 0
  m_Script: {fileID: 11500000, guid: 12c0ac28542b14de6a887a6a9067d86d, type: 3}
  m_Name: 
  m_EditorClassIdentifier: 
--- !u!1 &842120803
GameObject:
  m_ObjectHideFlags: 0
  m_CorrespondingSourceObject: {fileID: 0}
  m_PrefabInstance: {fileID: 0}
  m_PrefabAsset: {fileID: 0}
  serializedVersion: 6
  m_Component:
  - component: {fileID: 842120804}
  m_Layer: 0
  m_Name: Compound
  m_TagString: Untagged
  m_Icon: {fileID: 0}
  m_NavMeshLayer: 0
  m_StaticEditorFlags: 0
  m_IsActive: 1
--- !u!4 &842120804
Transform:
  m_ObjectHideFlags: 0
  m_CorrespondingSourceObject: {fileID: 0}
  m_PrefabInstance: {fileID: 0}
  m_PrefabAsset: {fileID: 0}
  m_GameObject: {fileID: 842120803}
  m_LocalRotation: {x: -0, y: -0, z: 0.17364816, w: 0.9848078}
  m_LocalPosition: {x: -2.55, y: 3.24, z: 0}
  m_LocalScale: {x: 1, y: 1, z: 1}
  m_Children:
  - {fileID: 121966933}
  - {fileID: 1711365810}
  m_Father: {fileID: 335578780}
  m_RootOrder: 0
  m_LocalEulerAnglesHint: {x: 0, y: 0, z: 20}
--- !u!1 &952636246
GameObject:
  m_ObjectHideFlags: 0
  m_CorrespondingSourceObject: {fileID: 0}
  m_PrefabInstance: {fileID: 0}
  m_PrefabAsset: {fileID: 0}
  serializedVersion: 6
  m_Component:
  - component: {fileID: 952636248}
  - component: {fileID: 952636247}
  m_Layer: 0
  m_Name: BurstCollisionWorld
  m_TagString: Untagged
  m_Icon: {fileID: 0}
  m_NavMeshLayer: 0
  m_StaticEditorFlags: 0
  m_IsActive: 1
--- !u!114 &952636247
MonoBehaviour:
  m_ObjectHideFlags: 0
  m_CorrespondingSourceObject: {fileID: 0}
  m_PrefabInstance: {fileID: 0}
  m_PrefabAsset: {fileID: 0}
  m_GameObject: {fileID: 952636246}
  m_Enabled: 1
  m_EditorHideFlags: 0
  m_Script: {fileID: 11500000, guid: f1a161c4294214a4fbcb7e9e94800494, type: 3}
  m_Name: 
  m_EditorClassIdentifier: 
  cellSpans: {}
--- !u!4 &952636248
Transform:
  m_ObjectHideFlags: 0
  m_CorrespondingSourceObject: {fileID: 0}
  m_PrefabInstance: {fileID: 0}
  m_PrefabAsset: {fileID: 0}
  m_GameObject: {fileID: 952636246}
  m_LocalRotation: {x: 0, y: 0, z: 0, w: 1}
  m_LocalPosition: {x: 0, y: 0, z: 0}
  m_LocalScale: {x: 1, y: 1, z: 1}
  m_Children: []
  m_Father: {fileID: 0}
  m_RootOrder: 4
  m_LocalEulerAnglesHint: {x: 0, y: 0, z: 0}
--- !u!1 &1137808981
GameObject:
  m_ObjectHideFlags: 0
  m_CorrespondingSourceObject: {fileID: 0}
  m_PrefabInstance: {fileID: 0}
  m_PrefabAsset: {fileID: 0}
  serializedVersion: 6
  m_Component:
  - component: {fileID: 1137808983}
  - component: {fileID: 1137808982}
  - component: {fileID: 1137808984}
  m_Layer: 0
  m_Name: Directional Light
  m_TagString: Untagged
  m_Icon: {fileID: 0}
  m_NavMeshLayer: 0
  m_StaticEditorFlags: 0
  m_IsActive: 1
--- !u!108 &1137808982
Light:
  m_ObjectHideFlags: 0
  m_CorrespondingSourceObject: {fileID: 0}
  m_PrefabInstance: {fileID: 0}
  m_PrefabAsset: {fileID: 0}
  m_GameObject: {fileID: 1137808981}
  m_Enabled: 1
  serializedVersion: 10
  m_Type: 1
  m_Shape: 0
  m_Color: {r: 1, g: 0.95686275, b: 0.8392157, a: 1}
  m_Intensity: 1
  m_Range: 10
  m_SpotAngle: 30
  m_InnerSpotAngle: 21.802082
  m_CookieSize: 10
  m_Shadows:
    m_Type: 2
    m_Resolution: -1
    m_CustomResolution: -1
    m_Strength: 1
    m_Bias: 0.05
    m_NormalBias: 0.4
    m_NearPlane: 0.2
    m_CullingMatrixOverride:
      e00: 1
      e01: 0
      e02: 0
      e03: 0
      e10: 0
      e11: 1
      e12: 0
      e13: 0
      e20: 0
      e21: 0
      e22: 1
      e23: 0
      e30: 0
      e31: 0
      e32: 0
      e33: 1
    m_UseCullingMatrixOverride: 0
  m_Cookie: {fileID: 0}
  m_DrawHalo: 0
  m_Flare: {fileID: 0}
  m_RenderMode: 0
  m_CullingMask:
    serializedVersion: 2
    m_Bits: 4294967295
  m_RenderingLayerMask: 1
  m_Lightmapping: 4
  m_LightShadowCasterMode: 0
  m_AreaSize: {x: 1, y: 1}
  m_BounceIntensity: 1
  m_ColorTemperature: 6570
  m_UseColorTemperature: 0
  m_BoundingSphereOverride: {x: 0, y: 0, z: 0, w: 0}
  m_UseBoundingSphereOverride: 0
  m_ShadowRadius: 0
  m_ShadowAngle: 0
--- !u!4 &1137808983
Transform:
  m_ObjectHideFlags: 0
  m_CorrespondingSourceObject: {fileID: 0}
  m_PrefabInstance: {fileID: 0}
  m_PrefabAsset: {fileID: 0}
  m_GameObject: {fileID: 1137808981}
  m_LocalRotation: {x: 0.5302501, y: -0.05058743, z: 0.048262734, w: 0.8449536}
  m_LocalPosition: {x: 0, y: 3, z: 0}
  m_LocalScale: {x: 1, y: 1, z: 1}
  m_Children: []
  m_Father: {fileID: 0}
  m_RootOrder: 2
  m_LocalEulerAnglesHint: {x: 64.284004, y: -4.5350003, z: 3.6880002}
--- !u!114 &1137808984
MonoBehaviour:
  m_ObjectHideFlags: 0
  m_CorrespondingSourceObject: {fileID: 0}
  m_PrefabInstance: {fileID: 0}
  m_PrefabAsset: {fileID: 0}
  m_GameObject: {fileID: 1137808981}
  m_Enabled: 1
  m_EditorHideFlags: 0
  m_Script: {fileID: 11500000, guid: dbf7247281ef14860853fa0ee2cb4829, type: 3}
  m_Name: 
  m_EditorClassIdentifier: 
  particleRenderers: []
--- !u!1 &1588738360
GameObject:
  m_ObjectHideFlags: 0
  m_CorrespondingSourceObject: {fileID: 0}
  m_PrefabInstance: {fileID: 0}
  m_PrefabAsset: {fileID: 0}
  serializedVersion: 6
  m_Component:
  - component: {fileID: 1588738362}
  - component: {fileID: 1588738361}
  m_Layer: 0
  m_Name: OniCollisionWorld
  m_TagString: Untagged
  m_Icon: {fileID: 0}
  m_NavMeshLayer: 0
  m_StaticEditorFlags: 0
  m_IsActive: 1
--- !u!114 &1588738361
MonoBehaviour:
  m_ObjectHideFlags: 0
  m_CorrespondingSourceObject: {fileID: 0}
  m_PrefabInstance: {fileID: 0}
  m_PrefabAsset: {fileID: 0}
  m_GameObject: {fileID: 1588738360}
  m_Enabled: 1
  m_EditorHideFlags: 0
  m_Script: {fileID: 11500000, guid: d02d25c24c8574316883c920912e4fdb, type: 3}
  m_Name: 
  m_EditorClassIdentifier: 
--- !u!4 &1588738362
Transform:
  m_ObjectHideFlags: 0
  m_CorrespondingSourceObject: {fileID: 0}
  m_PrefabInstance: {fileID: 0}
  m_PrefabAsset: {fileID: 0}
  m_GameObject: {fileID: 1588738360}
  m_LocalRotation: {x: 0, y: 0, z: 0, w: 1}
  m_LocalPosition: {x: 0, y: 0, z: 0}
  m_LocalScale: {x: 1, y: 1, z: 1}
  m_Children: []
  m_Father: {fileID: 0}
  m_RootOrder: 5
  m_LocalEulerAnglesHint: {x: 0, y: 0, z: 0}
--- !u!1001 &1592737018
PrefabInstance:
  m_ObjectHideFlags: 0
  serializedVersion: 2
  m_Modification:
    m_TransformParent: {fileID: 0}
    m_Modifications:
    - target: {fileID: 100000, guid: 64df75de10b494f109b074d28a8eade0, type: 3}
      propertyPath: m_IsActive
      value: 1
      objectReference: {fileID: 0}
    - target: {fileID: 400000, guid: 64df75de10b494f109b074d28a8eade0, type: 3}
      propertyPath: m_RootOrder
      value: 1
      objectReference: {fileID: 0}
    - target: {fileID: 400000, guid: 64df75de10b494f109b074d28a8eade0, type: 3}
      propertyPath: m_LocalPosition.x
      value: 0
      objectReference: {fileID: 0}
    - target: {fileID: 400000, guid: 64df75de10b494f109b074d28a8eade0, type: 3}
      propertyPath: m_LocalPosition.y
      value: 0
      objectReference: {fileID: 0}
    - target: {fileID: 400000, guid: 64df75de10b494f109b074d28a8eade0, type: 3}
      propertyPath: m_LocalPosition.z
      value: 0
      objectReference: {fileID: 0}
    - target: {fileID: 400000, guid: 64df75de10b494f109b074d28a8eade0, type: 3}
      propertyPath: m_LocalRotation.w
      value: 1
      objectReference: {fileID: 0}
    - target: {fileID: 400000, guid: 64df75de10b494f109b074d28a8eade0, type: 3}
      propertyPath: m_LocalRotation.x
      value: 0
      objectReference: {fileID: 0}
    - target: {fileID: 400000, guid: 64df75de10b494f109b074d28a8eade0, type: 3}
      propertyPath: m_LocalRotation.y
      value: -0
      objectReference: {fileID: 0}
    - target: {fileID: 400000, guid: 64df75de10b494f109b074d28a8eade0, type: 3}
      propertyPath: m_LocalRotation.z
      value: -0
      objectReference: {fileID: 0}
    - target: {fileID: 2300000, guid: 64df75de10b494f109b074d28a8eade0, type: 3}
      propertyPath: m_Enabled
      value: 1
      objectReference: {fileID: 0}
    - target: {fileID: 2300000, guid: 64df75de10b494f109b074d28a8eade0, type: 3}
      propertyPath: m_Materials.Array.data[0]
      value: 
      objectReference: {fileID: 2100000, guid: e78e1b735e05b4dee88b279cb6997001, type: 2}
    - target: {fileID: 3300000, guid: 64df75de10b494f109b074d28a8eade0, type: 3}
      propertyPath: m_Mesh
      value: 
      objectReference: {fileID: 4300000, guid: 64df75de10b494f109b074d28a8eade0, type: 3}
    m_RemovedComponents: []
  m_SourcePrefab: {fileID: 100100000, guid: 64df75de10b494f109b074d28a8eade0, type: 3}
--- !u!1 &1592737019 stripped
GameObject:
  m_CorrespondingSourceObject: {fileID: 100000, guid: 64df75de10b494f109b074d28a8eade0,
    type: 3}
  m_PrefabInstance: {fileID: 1592737018}
  m_PrefabAsset: {fileID: 0}
--- !u!64 &1592737020
MeshCollider:
  m_ObjectHideFlags: 0
  m_CorrespondingSourceObject: {fileID: 0}
  m_PrefabInstance: {fileID: 0}
  m_PrefabAsset: {fileID: 0}
  m_GameObject: {fileID: 1592737019}
  m_Material: {fileID: 0}
  m_IsTrigger: 0
  m_Enabled: 1
  serializedVersion: 4
  m_Convex: 0
  m_CookingOptions: 30
  m_Mesh: {fileID: 4300000, guid: 64df75de10b494f109b074d28a8eade0, type: 3}
--- !u!114 &1592737021
MonoBehaviour:
  m_ObjectHideFlags: 0
  m_CorrespondingSourceObject: {fileID: 0}
  m_PrefabInstance: {fileID: 0}
  m_PrefabAsset: {fileID: 0}
  m_GameObject: {fileID: 1592737019}
  m_Enabled: 0
  m_EditorHideFlags: 0
  m_Script: {fileID: 11500000, guid: 382f1f06ad1a84a9f8fb3a60b50dd9b7, type: 3}
  m_Name: 
  m_EditorClassIdentifier: 
  axis: 1
  slice: 0.588
  maxDistance: 0.24
--- !u!114 &1592737024
MonoBehaviour:
  m_ObjectHideFlags: 0
  m_CorrespondingSourceObject: {fileID: 0}
  m_PrefabInstance: {fileID: 0}
  m_PrefabAsset: {fileID: 0}
  m_GameObject: {fileID: 1592737019}
  m_Enabled: 1
  m_EditorHideFlags: 0
  m_Script: {fileID: 11500000, guid: 6757b231cedd544c583ef8aeaf773b2a, type: 3}
  m_Name: 
  m_EditorClassIdentifier: 
  thickness: 0
  material: {fileID: 0}
  filter: -65535
  m_SourceCollider: {fileID: 1592737020}
  m_DistanceField: {fileID: 11400000, guid: 5eb5ff1af3a3f4a14977448198c232ae, type: 2}
--- !u!1 &1711365804
GameObject:
  m_ObjectHideFlags: 0
  m_CorrespondingSourceObject: {fileID: 0}
  m_PrefabInstance: {fileID: 0}
  m_PrefabAsset: {fileID: 0}
  serializedVersion: 6
  m_Component:
  - component: {fileID: 1711365810}
  - component: {fileID: 1711365809}
  - component: {fileID: 1711365807}
  - component: {fileID: 1711365806}
  - component: {fileID: 1711365805}
  m_Layer: 8
  m_Name: Emitter B
  m_TagString: Untagged
  m_Icon: {fileID: 0}
  m_NavMeshLayer: 0
  m_StaticEditorFlags: 0
  m_IsActive: 1
--- !u!114 &1711365805
MonoBehaviour:
  m_ObjectHideFlags: 0
  m_CorrespondingSourceObject: {fileID: 0}
  m_PrefabInstance: {fileID: 0}
  m_PrefabAsset: {fileID: 0}
  m_GameObject: {fileID: 1711365804}
  m_Enabled: 1
  m_EditorHideFlags: 0
  m_Script: {fileID: 11500000, guid: b03f3cb7478b24bb1818eb9f51b88bcf, type: 3}
  m_Name: 
  m_EditorClassIdentifier: 
  grad:
    serializedVersion: 2
    key0: {r: 1, g: 0.9654912, b: 0, a: 1}
    key1: {r: 1, g: 0.80961907, b: 0.007843137, a: 1}
    key2: {r: 1, g: 0.54693955, b: 0.37254906, a: 0}
    key3: {r: 1, g: 0, b: 0.8296585, a: 0}
    key4: {r: 0.61980397, g: 0.10012458, b: 0.8490566, a: 0}
    key5: {r: 0, g: 0.59607965, b: 0.8584906, a: 0}
    key6: {r: 0, g: 0.5862069, b: 1, a: 0}
    key7: {r: 0, g: 0, b: 0, a: 0}
    ctime0: 0
    ctime1: 19661
    ctime2: 26214
    ctime3: 32768
    ctime4: 39321
    ctime5: 45875
    ctime6: 65535
    ctime7: 0
    atime0: 0
    atime1: 65535
    atime2: 0
    atime3: 0
    atime4: 0
    atime5: 0
    atime6: 0
    atime7: 0
    m_Mode: 0
    m_NumColorKeys: 7
    m_NumAlphaKeys: 2
--- !u!114 &1711365806
MonoBehaviour:
  m_ObjectHideFlags: 0
  m_CorrespondingSourceObject: {fileID: 0}
  m_PrefabInstance: {fileID: 0}
  m_PrefabAsset: {fileID: 0}
  m_GameObject: {fileID: 1711365804}
  m_Enabled: 1
  m_EditorHideFlags: 0
  m_Script: {fileID: 11500000, guid: 748587b7cb89947cdb69eed6554256f6, type: 3}
  m_Name: 
  m_EditorClassIdentifier: 
  emitter: {fileID: 1711365807}
  color: {r: 1, g: 1, b: 1, a: 1}
  particleSize: 0.1
  distribution:
  - position: {x: -0.35, y: 0, z: 0}
    velocity: {x: 0, y: 0, z: 1}
    color: {r: 1, g: 1, b: 1, a: 1}
  - position: {x: -0.24, y: 0, z: 0}
    velocity: {x: 0, y: 0, z: 1}
    color: {r: 1, g: 1, b: 1, a: 1}
  - position: {x: -0.13, y: 0, z: 0}
    velocity: {x: 0, y: 0, z: 1}
    color: {r: 1, g: 1, b: 1, a: 1}
  - position: {x: -0.019999996, y: 0, z: 0}
    velocity: {x: 0, y: 0, z: 1}
    color: {r: 1, g: 1, b: 1, a: 1}
  - position: {x: 0.09, y: 0, z: 0}
    velocity: {x: 0, y: 0, z: 1}
    color: {r: 1, g: 1, b: 1, a: 1}
  - position: {x: 0.2, y: 0, z: 0}
    velocity: {x: 0, y: 0, z: 1}
    color: {r: 1, g: 1, b: 1, a: 1}
  - position: {x: 0.31, y: 0, z: 0}
    velocity: {x: 0, y: 0, z: 1}
    color: {r: 1, g: 1, b: 1, a: 1}
  lenght: 0.7
  radialVelocity: 0
--- !u!114 &1711365807
MonoBehaviour:
  m_ObjectHideFlags: 0
  m_CorrespondingSourceObject: {fileID: 0}
  m_PrefabInstance: {fileID: 0}
  m_PrefabAsset: {fileID: 0}
  m_GameObject: {fileID: 1711365804}
  m_Enabled: 1
  m_EditorHideFlags: 0
  m_Script: {fileID: 11500000, guid: 78c37f4b1f0174c6ebfdf0e7b8af64a3, type: 3}
  m_Name: 
  m_EditorClassIdentifier: 
  m_CollisionMaterial: {fileID: 0}
  m_SurfaceCollisions: 0
  emitterBlueprint: {fileID: 11400000, guid: 13201760673c143d29a7ca4be6aa66ff, type: 2}
  emissionMethod: 0
  minPoolSize: 0.5
  speed: 3
  lifespan: 50
  randomVelocity: 0
  useShapeColor: 0
  emitterShapes:
  - {fileID: 1711365806}
  life:
  - 50
  - 50
  - 50
  - 50
  - 50
  - 50
  - 50
  - 50
  - 50
  - 50
  - 50
  - 50
  - 50
  - 50
  - 50
  - 50
  - 50
  - 50
  - 50
  - 50
  - 50
  - 50
  - 50
  - 50
  - 50
  - 50
  - 50
  - 50
  - 50
  - 50
  - 50
  - 50
  - 50
  - 50
  - 50
  - 50
  - 50
  - 50
  - 50
  - 50
  - 50
  - 50
  - 50
  - 50
  - 50
  - 50
  - 50
  - 50
  - 50
  - 50
  - 50
  - 50
  - 50
  - 50
  - 50
  - 50
  - 50
  - 50
  - 50
  - 50
  - 50
  - 50
  - 50
  - 50
  - 50
  - 50
  - 50
  - 50
  - 50
  - 50
  - 50
  - 50
  - 50
  - 50
  - 50
  - 50
  - 50
  - 50
  - 50
  - 50
  - 50
  - 50
  - 50
  - 50
  - 50
  - 50
  - 50
  - 50
  - 50
  - 50
  - 50
  - 50
  - 50
  - 50
  - 50
  - 50
  - 50
  - 50
  - 50
  - 50
  - 50
  - 50
  - 50
  - 50
  - 50
  - 50
  - 50
  - 50
  - 50
  - 50
  - 50
  - 50
  - 50
  - 50
  - 50
  - 50
  - 50
  - 50
  - 50
  - 50
  - 50
  - 50
  - 50
  - 50
  - 50
  - 50
  - 50
  - 50
  - 50
  - 50
  - 50
  - 50
  - 50
  - 50
  - 50
  - 50
  - 50
  - 50
  - 50
  - 50
  - 50
  - 50
  - 50
  - 50
  - 50
  - 50
  - 50
  - 50
  - 50
  - 50
  - 50
  - 50
  - 50
  - 50
  - 50
  - 50
  - 50
  - 50
  - 50
  - 50
  - 50
  - 50
  - 50
  - 50
  - 50
  - 50
  - 50
  - 50
  - 50
  - 50
  - 50
  - 50
  - 50
  - 50
  - 50
  - 50
  - 50
  - 50
  - 50
  - 50
  - 50
  - 50
  - 50
  - 50
  - 50
  - 50
  - 50
  - 50
  - 50
  - 50
  - 50
  - 50
  - 50
  - 50
  - 50
  - 50
  - 50
  - 50
  - 50
  - 50
  - 50
  - 50
  - 50
  - 50
  - 50
  - 50
  - 50
  - 50
  - 50
  - 50
  - 50
  - 50
  - 50
  - 50
  - 50
  - 50
  - 50
  - 50
  - 50
  - 50
  - 50
  - 50
  - 50
  - 50
  - 50
  - 50
  - 50
  - 50
  - 50
  - 50
  - 50
  - 50
  - 50
  - 50
  - 50
  - 50
  - 50
  - 50
  - 50
  - 50
  - 50
  - 50
  - 50
  - 50
  - 50
  - 50
  - 50
  - 50
  - 50
  - 50
  - 50
  - 50
  - 50
  - 50
  - 50
  - 50
  - 50
  - 50
  - 50
  - 50
  - 50
  - 50
  - 50
  - 50
  - 50
  - 50
  - 50
  - 50
  - 50
  - 50
  - 50
  - 50
  - 50
  - 50
  - 50
  - 50
  - 50
  - 50
  - 50
  - 50
  - 50
  - 50
  - 50
  - 50
  - 50
  - 50
  - 50
  - 50
  - 50
  - 50
  - 50
  - 50
  - 50
  - 50
  - 50
  - 50
  - 50
  - 50
  - 50
  - 50
  - 50
  - 50
  - 50
  - 50
  - 50
  - 50
  - 50
  - 50
  - 50
  - 50
  - 50
  - 50
  - 50
  - 50
  - 50
  - 50
  - 50
  - 50
  - 50
  - 50
  - 50
  - 50
  - 50
  - 50
  - 50
  - 50
  - 50
  - 50
  - 50
  - 50
  - 50
  - 50
  - 50
  - 50
  - 50
  - 50
  - 50
  - 50
  - 50
  - 50
  - 50
  - 50
  - 50
  - 50
  - 50
  - 50
  - 50
  - 50
  - 50
  - 50
  - 50
  - 50
  - 50
  - 50
  - 50
  - 50
  - 50
  - 50
  - 50
  - 50
  - 50
  - 50
  - 50
  - 50
  - 50
  - 50
  - 50
  - 50
  - 50
  - 50
  - 50
  - 50
  - 50
  - 50
  - 50
  - 50
  - 50
  - 50
  - 50
  - 50
  - 50
  - 50
  - 50
  - 50
  - 50
  - 50
  - 50
  - 50
  - 50
  - 50
  - 50
  - 50
  - 50
  - 50
  - 50
  - 50
  - 50
  - 50
  - 50
  - 50
  - 50
  - 50
  - 50
  - 50
  - 50
  - 50
  - 50
  - 50
  - 50
  - 50
  - 50
  - 50
  - 50
  - 50
  - 50
  - 50
  - 50
  - 50
  - 50
  - 50
  - 50
  - 50
  - 50
  - 50
  - 50
  - 50
  - 50
  - 50
  - 50
  - 50
  - 50
  - 50
  - 50
  - 50
  - 50
  - 50
  - 50
  - 50
  - 50
  - 50
  - 50
  - 50
  - 50
  - 50
  - 50
  - 50
  - 50
  - 50
  - 50
  - 50
  - 50
  - 50
  - 50
  - 50
  - 50
  - 50
  - 50
  - 50
  - 50
  - 50
  - 50
  - 50
  - 50
  - 50
  - 50
  - 50
  - 50
  - 50
  - 50
  - 50
  - 50
  - 50
  - 50
  - 50
  - 50
  - 50
  - 50
  - 50
  - 50
  - 50
  - 50
  - 50
  - 50
  - 50
  - 50
  - 50
  - 50
  - 50
  - 50
  - 50
  - 50
  - 50
  - 50
  - 50
  - 50
  - 50
  - 50
  - 50
  - 50
  - 50
  - 50
  - 50
  - 50
  - 50
  - 50
  - 50
  - 50
  - 50
  - 50
  - 50
  - 50
  - 50
  - 50
  - 50
  - 50
  - 50
  - 50
  - 50
  - 50
  - 50
  - 50
  - 50
  - 50
  - 50
  - 50
  - 50
  - 50
  - 50
  - 50
  - 50
  - 50
  - 50
  - 50
  - 50
  - 50
  - 50
  - 50
  - 50
  - 50
  - 50
  - 50
  - 50
  - 50
  - 50
  - 50
  - 50
  - 50
  - 50
  - 50
  - 50
  - 50
  - 50
  - 50
  - 50
  - 50
  - 50
  - 50
  - 50
  - 50
  - 50
  - 50
  - 50
  - 50
  - 50
  - 50
  - 50
  - 50
  - 50
  - 50
  - 50
  - 50
  - 50
  - 50
  - 50
  - 50
  - 50
  - 50
  - 50
  - 50
  - 50
  - 50
  - 50
  - 50
  - 50
  - 50
  - 50
  - 50
  - 50
  - 50
  - 50
  - 50
  - 50
  - 50
  - 50
  - 50
  - 50
  - 50
  - 50
  - 50
  - 50
  - 50
  - 50
  - 50
  - 50
  - 50
  - 50
  - 50
  - 50
  - 50
  - 50
  - 50
  - 50
  - 50
  - 50
  - 50
  - 50
  - 50
  - 50
  - 50
  - 50
  - 50
  - 50
  - 50
  - 50
  - 50
  - 50
  - 50
  - 50
  - 50
  - 50
  - 50
  - 50
  - 50
  - 50
  - 50
  - 50
  - 50
  - 50
  - 50
  - 50
  - 50
  - 50
  - 50
  - 50
  - 50
  - 50
  - 50
  - 50
  - 50
  - 50
  - 50
  - 50
  - 50
  - 50
  - 50
  - 50
  - 50
  - 50
  - 50
  - 50
  - 50
  - 50
  - 50
  - 50
  - 50
  - 50
  - 50
  - 50
  - 50
  - 50
  - 50
  - 50
  - 50
  - 50
  - 50
  - 50
  - 50
  - 50
  - 50
  - 50
  - 50
  - 50
  - 50
  - 50
  - 50
  - 50
  - 50
  - 50
  - 50
  - 50
  - 50
  - 50
  - 50
  - 50
  - 50
  - 50
  - 50
  - 50
  - 50
  - 50
  - 50
  - 50
  - 50
  - 50
  - 50
  - 50
  - 50
  - 50
  - 50
  - 50
  - 50
  - 50
  - 50
  - 50
  - 50
  - 50
  - 50
  - 50
  - 50
  - 50
  - 50
  - 50
  - 50
  - 50
  - 50
  - 50
  - 50
  - 50
  - 50
  - 50
  - 50
  - 50
  - 50
  - 50
  - 50
  - 50
  - 50
  - 50
  - 50
  - 50
  - 50
  - 50
  - 50
  - 50
  - 50
  - 50
  - 50
  - 50
  - 50
  - 50
  - 50
  - 50
  - 50
  - 50
  - 50
  - 50
  - 50
  - 50
  - 50
  - 50
  - 50
  - 50
  - 50
  - 50
  - 50
  - 50
  - 50
  - 50
  - 50
  - 50
  - 50
  - 50
  - 50
  - 50
  - 50
  - 50
  - 50
  - 50
  - 50
  - 50
  - 50
  - 50
  - 50
  - 50
  - 50
  - 50
  - 50
  - 50
  - 50
  - 50
  - 50
  - 50
  - 50
  - 50
  - 50
  - 50
  - 50
  - 50
  - 50
  - 50
  - 50
  - 50
  - 50
  - 50
  - 50
  - 50
  - 50
  - 50
  - 50
  - 50
  - 50
  - 50
  - 50
  - 50
  - 50
  - 50
  - 50
  - 50
  - 50
  - 50
  - 50
  - 50
  - 50
  - 50
  - 50
  - 50
  - 50
  - 50
  - 50
  - 50
  - 50
  - 50
  - 50
  - 50
  - 50
  - 50
  - 50
  - 50
  - 50
  - 50
  - 50
  - 50
  - 50
  - 50
  - 50
  - 50
  - 50
  - 50
  - 50
  - 50
  - 50
  - 50
  - 50
  - 50
  - 50
  - 50
  - 50
  - 50
  - 50
  - 50
  - 50
  - 50
  - 50
  - 50
  - 50
  - 50
  - 50
  - 50
  - 50
  - 50
  - 50
  - 50
  - 50
  - 50
  - 50
  - 50
  - 50
  - 50
  - 50
  - 50
  - 50
  - 50
  - 50
  - 50
  - 50
  - 50
  - 50
  - 50
  - 50
  - 50
  - 50
  - 50
  - 50
  - 50
  - 50
  - 50
  - 50
  - 50
  - 50
  - 50
  - 50
  - 50
  - 50
  - 50
  - 50
  - 50
  - 50
  - 50
  - 50
  - 50
  - 50
  - 50
  - 50
  - 50
  - 50
  - 50
  - 50
  - 50
  - 50
  - 50
  - 50
  - 50
  - 50
  - 50
  - 50
  - 50
  - 50
  - 50
  - 50
  - 50
  - 50
  - 50
  - 50
  - 50
  - 50
  - 50
  - 50
  - 50
  - 50
  - 50
  - 50
  - 50
  - 50
  - 50
  - 50
  - 50
  - 50
  - 50
  - 50
  - 50
  - 50
  - 50
  - 50
  - 50
  - 50
  - 50
  - 50
  - 50
  - 50
  - 50
  - 50
  - 50
  - 50
  - 50
  - 50
  - 50
  - 50
  - 50
  - 50
  - 50
  - 50
  - 50
  - 50
  - 50
  - 50
  - 50
  - 50
  - 50
  - 50
  - 50
  - 50
  - 50
  - 50
  - 50
  - 50
  - 50
  - 50
  - 50
  - 50
  - 50
  - 50
  - 50
  - 50
  - 50
  - 50
  - 50
  - 50
  - 50
  - 50
  - 50
--- !u!114 &1711365809
MonoBehaviour:
  m_ObjectHideFlags: 0
  m_CorrespondingSourceObject: {fileID: 0}
  m_PrefabInstance: {fileID: 0}
  m_PrefabAsset: {fileID: 0}
  m_GameObject: {fileID: 1711365804}
  m_Enabled: 1
  m_EditorHideFlags: 0
  m_Script: {fileID: 11500000, guid: c8b45ebbf86be4df6b0e6cd933812af2, type: 3}
  m_Name: 
  m_EditorClassIdentifier: 
  render: 1
  shader: {fileID: 4800000, guid: 801733041f66b49e1b3c2101471db877, type: 3}
  particleColor: {r: 1, g: 1, b: 1, a: 1}
  radiusScale: 1
--- !u!4 &1711365810
Transform:
  m_ObjectHideFlags: 0
  m_CorrespondingSourceObject: {fileID: 0}
  m_PrefabInstance: {fileID: 0}
  m_PrefabAsset: {fileID: 0}
  m_GameObject: {fileID: 1711365804}
  m_LocalRotation: {x: -0.5, y: -0.5, z: 0.5, w: 0.5}
  m_LocalPosition: {x: 0, y: 0.5, z: 0}
  m_LocalScale: {x: 1, y: 1, z: 1}
  m_Children: []
  m_Father: {fileID: 842120804}
  m_RootOrder: 1
  m_LocalEulerAnglesHint: {x: 0, y: -90, z: 90}
--- !u!1 &1805759508
GameObject:
  m_ObjectHideFlags: 0
  m_CorrespondingSourceObject: {fileID: 0}
  m_PrefabInstance: {fileID: 0}
  m_PrefabAsset: {fileID: 0}
  serializedVersion: 6
  m_Component:
  - component: {fileID: 1805759513}
  - component: {fileID: 1805759512}
  - component: {fileID: 1805759510}
  - component: {fileID: 1805759517}
  m_Layer: 0
  m_Name: Main Camera
  m_TagString: MainCamera
  m_Icon: {fileID: 0}
  m_NavMeshLayer: 0
  m_StaticEditorFlags: 0
  m_IsActive: 1
--- !u!124 &1805759510
Behaviour:
  m_ObjectHideFlags: 0
  m_CorrespondingSourceObject: {fileID: 0}
  m_PrefabInstance: {fileID: 0}
  m_PrefabAsset: {fileID: 0}
  m_GameObject: {fileID: 1805759508}
  m_Enabled: 1
--- !u!20 &1805759512
Camera:
  m_ObjectHideFlags: 0
  m_CorrespondingSourceObject: {fileID: 0}
  m_PrefabInstance: {fileID: 0}
  m_PrefabAsset: {fileID: 0}
  m_GameObject: {fileID: 1805759508}
  m_Enabled: 1
  serializedVersion: 2
  m_ClearFlags: 1
  m_BackGroundColor: {r: 0.14827585, g: 0.14827585, b: 0.14827585, a: 0.019607844}
  m_projectionMatrixMode: 1
  m_GateFitMode: 2
  m_FOVAxisMode: 0
  m_SensorSize: {x: 36, y: 24}
  m_LensShift: {x: 0, y: 0}
  m_FocalLength: 50
  m_NormalizedViewPortRect:
    serializedVersion: 2
    x: 0
    y: 0
    width: 1
    height: 1
  near clip plane: 1
  far clip plane: 100
  field of view: 60
  orthographic: 1
  orthographic size: 3.6
  m_Depth: -1
  m_CullingMask:
    serializedVersion: 2
    m_Bits: 4294967295
  m_RenderingPath: -1
  m_TargetTexture: {fileID: 0}
  m_TargetDisplay: 0
  m_TargetEye: 3
  m_HDR: 0
  m_AllowMSAA: 1
  m_AllowDynamicResolution: 0
  m_ForceIntoRT: 1
  m_OcclusionCulling: 1
  m_StereoConvergence: 10
  m_StereoSeparation: 0.022
--- !u!4 &1805759513
Transform:
  m_ObjectHideFlags: 0
  m_CorrespondingSourceObject: {fileID: 0}
  m_PrefabInstance: {fileID: 0}
  m_PrefabAsset: {fileID: 0}
  m_GameObject: {fileID: 1805759508}
  m_LocalRotation: {x: 0, y: 0, z: 0, w: 1}
  m_LocalPosition: {x: 0, y: 2.9, z: -5.98}
  m_LocalScale: {x: 1, y: 1, z: 1}
  m_Children: []
  m_Father: {fileID: 0}
  m_RootOrder: 0
  m_LocalEulerAnglesHint: {x: 0, y: 0, z: 0}
--- !u!114 &1805759517
MonoBehaviour:
  m_ObjectHideFlags: 0
  m_CorrespondingSourceObject: {fileID: 0}
  m_PrefabInstance: {fileID: 0}
  m_PrefabAsset: {fileID: 0}
  m_GameObject: {fileID: 1805759508}
  m_Enabled: 0
  m_EditorHideFlags: 0
  m_Script: {fileID: 11500000, guid: 62e83a599724f45a4aa337d74764e572, type: 3}
  m_Name: 
  m_EditorClassIdentifier: 
  skin: {fileID: 11400000, guid: b90d3c214c99743b0865fc0e0d1f1a15, type: 2}
  threadColor: {r: 0, g: 1, b: 1, a: 1}
  taskColor: {r: 0, g: 1, b: 0, a: 1}
  parallelTaskColor: {r: 1, g: 0.8, b: 0.2, a: 1}
  renderTaskColor: {r: 0.2, g: 0.7, b: 1, a: 1}
  defaultTaskColor: {r: 1, g: 0.5, b: 0.2, a: 1}
  showPercentages: 1
  profileThrottle: 30
