%YAML 1.1
%TAG !u! tag:unity3d.com,2011:
--- !u!114 &11400000
MonoBehaviour:
  m_ObjectHideFlags: 0
  m_CorrespondingSourceObject: {fileID: 0}
  m_PrefabInstance: {fileID: 0}
  m_PrefabAsset: {fileID: 0}
  m_GameObject: {fileID: 0}
  m_Enabled: 1
  m_EditorHideFlags: 0
  m_Script: {fileID: 11500000, guid: f7780256b85144478aa1084fae803791, type: 3}
  m_Name: Faucet
  m_EditorClassIdentifier: 
  m_Empty: 0
  m_ActiveParticleCount: 0
  m_InitialActiveParticleCount: 0
  _bounds:
    m_Center: {x: 0, y: 0, z: 0}
    m_Extent: {x: 0, y: 0, z: 0}
  positions:
  - {x: 0, y: 0, z: 0}
  - {x: 0, y: 0, z: 0}
  - {x: 0, y: 0, z: 0}
  - {x: 0, y: 0, z: 0}
  - {x: 0, y: 0, z: 0}
  - {x: 0, y: 0, z: 0}
  - {x: 0, y: 0, z: 0}
  - {x: 0, y: 0, z: 0}
  - {x: 0, y: 0, z: 0}
  - {x: 0, y: 0, z: 0}
  - {x: 0, y: 0, z: 0}
  - {x: 0, y: 0, z: 0}
  - {x: 0, y: 0, z: 0}
  - {x: 0, y: 0, z: 0}
  - {x: 0, y: 0, z: 0}
  - {x: 0, y: 0, z: 0}
  - {x: 0, y: 0, z: 0}
  - {x: 0, y: 0, z: 0}
  - {x: 0, y: 0, z: 0}
  - {x: 0, y: 0, z: 0}
  - {x: 0, y: 0, z: 0}
  - {x: 0, y: 0, z: 0}
  - {x: 0, y: 0, z: 0}
  - {x: 0, y: 0, z: 0}
  - {x: 0, y: 0, z: 0}
  - {x: 0, y: 0, z: 0}
  - {x: 0, y: 0, z: 0}
  - {x: 0, y: 0, z: 0}
  - {x: 0, y: 0, z: 0}
  - {x: 0, y: 0, z: 0}
  - {x: 0, y: 0, z: 0}
  - {x: 0, y: 0, z: 0}
  - {x: 0, y: 0, z: 0}
  - {x: 0, y: 0, z: 0}
  - {x: 0, y: 0, z: 0}
  - {x: 0, y: 0, z: 0}
  - {x: 0, y: 0, z: 0}
  - {x: 0, y: 0, z: 0}
  - {x: 0, y: 0, z: 0}
  - {x: 0, y: 0, z: 0}
  - {x: 0, y: 0, z: 0}
  - {x: 0, y: 0, z: 0}
  - {x: 0, y: 0, z: 0}
  - {x: 0, y: 0, z: 0}
  - {x: 0, y: 0, z: 0}
  - {x: 0, y: 0, z: 0}
  - {x: 0, y: 0, z: 0}
  - {x: 0, y: 0, z: 0}
  - {x: 0, y: 0, z: 0}
  - {x: 0, y: 0, z: 0}
  - {x: 0, y: 0, z: 0}
  - {x: 0, y: 0, z: 0}
  - {x: 0, y: 0, z: 0}
  - {x: 0, y: 0, z: 0}
  - {x: 0, y: 0, z: 0}
  - {x: 0, y: 0, z: 0}
  - {x: 0, y: 0, z: 0}
  - {x: 0, y: 0, z: 0}
  - {x: 0, y: 0, z: 0}
  - {x: 0, y: 0, z: 0}
  - {x: 0, y: 0, z: 0}
  - {x: 0, y: 0, z: 0}
  - {x: 0, y: 0, z: 0}
  - {x: 0, y: 0, z: 0}
  - {x: 0, y: 0, z: 0}
  - {x: 0, y: 0, z: 0}
  - {x: 0, y: 0, z: 0}
  - {x: 0, y: 0, z: 0}
  - {x: 0, y: 0, z: 0}
  - {x: 0, y: 0, z: 0}
  - {x: 0, y: 0, z: 0}
  - {x: 0, y: 0, z: 0}
  - {x: 0, y: 0, z: 0}
  - {x: 0, y: 0, z: 0}
  - {x: 0, y: 0, z: 0}
  - {x: 0, y: 0, z: 0}
  - {x: 0, y: 0, z: 0}
  - {x: 0, y: 0, z: 0}
  - {x: 0, y: 0, z: 0}
  - {x: 0, y: 0, z: 0}
  - {x: 0, y: 0, z: 0}
  - {x: 0, y: 0, z: 0}
  - {x: 0, y: 0, z: 0}
  - {x: 0, y: 0, z: 0}
  - {x: 0, y: 0, z: 0}
  - {x: 0, y: 0, z: 0}
  - {x: 0, y: 0, z: 0}
  - {x: 0, y: 0, z: 0}
  - {x: 0, y: 0, z: 0}
  - {x: 0, y: 0, z: 0}
  - {x: 0, y: 0, z: 0}
  - {x: 0, y: 0, z: 0}
  - {x: 0, y: 0, z: 0}
  - {x: 0, y: 0, z: 0}
  - {x: 0, y: 0, z: 0}
  - {x: 0, y: 0, z: 0}
  - {x: 0, y: 0, z: 0}
  - {x: 0, y: 0, z: 0}
  - {x: 0, y: 0, z: 0}
  - {x: 0, y: 0, z: 0}
  restPositions:
  - {x: 0, y: 0, z: 0, w: 0}
  - {x: 0, y: 0, z: 0, w: 0}
  - {x: 0, y: 0, z: 0, w: 0}
  - {x: 0, y: 0, z: 0, w: 0}
  - {x: 0, y: 0, z: 0, w: 0}
  - {x: 0, y: 0, z: 0, w: 0}
  - {x: 0, y: 0, z: 0, w: 0}
  - {x: 0, y: 0, z: 0, w: 0}
  - {x: 0, y: 0, z: 0, w: 0}
  - {x: 0, y: 0, z: 0, w: 0}
  - {x: 0, y: 0, z: 0, w: 0}
  - {x: 0, y: 0, z: 0, w: 0}
  - {x: 0, y: 0, z: 0, w: 0}
  - {x: 0, y: 0, z: 0, w: 0}
  - {x: 0, y: 0, z: 0, w: 0}
  - {x: 0, y: 0, z: 0, w: 0}
  - {x: 0, y: 0, z: 0, w: 0}
  - {x: 0, y: 0, z: 0, w: 0}
  - {x: 0, y: 0, z: 0, w: 0}
  - {x: 0, y: 0, z: 0, w: 0}
  - {x: 0, y: 0, z: 0, w: 0}
  - {x: 0, y: 0, z: 0, w: 0}
  - {x: 0, y: 0, z: 0, w: 0}
  - {x: 0, y: 0, z: 0, w: 0}
  - {x: 0, y: 0, z: 0, w: 0}
  - {x: 0, y: 0, z: 0, w: 0}
  - {x: 0, y: 0, z: 0, w: 0}
  - {x: 0, y: 0, z: 0, w: 0}
  - {x: 0, y: 0, z: 0, w: 0}
  - {x: 0, y: 0, z: 0, w: 0}
  - {x: 0, y: 0, z: 0, w: 0}
  - {x: 0, y: 0, z: 0, w: 0}
  - {x: 0, y: 0, z: 0, w: 0}
  - {x: 0, y: 0, z: 0, w: 0}
  - {x: 0, y: 0, z: 0, w: 0}
  - {x: 0, y: 0, z: 0, w: 0}
  - {x: 0, y: 0, z: 0, w: 0}
  - {x: 0, y: 0, z: 0, w: 0}
  - {x: 0, y: 0, z: 0, w: 0}
  - {x: 0, y: 0, z: 0, w: 0}
  - {x: 0, y: 0, z: 0, w: 0}
  - {x: 0, y: 0, z: 0, w: 0}
  - {x: 0, y: 0, z: 0, w: 0}
  - {x: 0, y: 0, z: 0, w: 0}
  - {x: 0, y: 0, z: 0, w: 0}
  - {x: 0, y: 0, z: 0, w: 0}
  - {x: 0, y: 0, z: 0, w: 0}
  - {x: 0, y: 0, z: 0, w: 0}
  - {x: 0, y: 0, z: 0, w: 0}
  - {x: 0, y: 0, z: 0, w: 0}
  - {x: 0, y: 0, z: 0, w: 0}
  - {x: 0, y: 0, z: 0, w: 0}
  - {x: 0, y: 0, z: 0, w: 0}
  - {x: 0, y: 0, z: 0, w: 0}
  - {x: 0, y: 0, z: 0, w: 0}
  - {x: 0, y: 0, z: 0, w: 0}
  - {x: 0, y: 0, z: 0, w: 0}
  - {x: 0, y: 0, z: 0, w: 0}
  - {x: 0, y: 0, z: 0, w: 0}
  - {x: 0, y: 0, z: 0, w: 0}
  - {x: 0, y: 0, z: 0, w: 0}
  - {x: 0, y: 0, z: 0, w: 0}
  - {x: 0, y: 0, z: 0, w: 0}
  - {x: 0, y: 0, z: 0, w: 0}
  - {x: 0, y: 0, z: 0, w: 0}
  - {x: 0, y: 0, z: 0, w: 0}
  - {x: 0, y: 0, z: 0, w: 0}
  - {x: 0, y: 0, z: 0, w: 0}
  - {x: 0, y: 0, z: 0, w: 0}
  - {x: 0, y: 0, z: 0, w: 0}
  - {x: 0, y: 0, z: 0, w: 0}
  - {x: 0, y: 0, z: 0, w: 0}
  - {x: 0, y: 0, z: 0, w: 0}
  - {x: 0, y: 0, z: 0, w: 0}
  - {x: 0, y: 0, z: 0, w: 0}
  - {x: 0, y: 0, z: 0, w: 0}
  - {x: 0, y: 0, z: 0, w: 0}
  - {x: 0, y: 0, z: 0, w: 0}
  - {x: 0, y: 0, z: 0, w: 0}
  - {x: 0, y: 0, z: 0, w: 0}
  - {x: 0, y: 0, z: 0, w: 0}
  - {x: 0, y: 0, z: 0, w: 0}
  - {x: 0, y: 0, z: 0, w: 0}
  - {x: 0, y: 0, z: 0, w: 0}
  - {x: 0, y: 0, z: 0, w: 0}
  - {x: 0, y: 0, z: 0, w: 0}
  - {x: 0, y: 0, z: 0, w: 0}
  - {x: 0, y: 0, z: 0, w: 0}
  - {x: 0, y: 0, z: 0, w: 0}
  - {x: 0, y: 0, z: 0, w: 0}
  - {x: 0, y: 0, z: 0, w: 0}
  - {x: 0, y: 0, z: 0, w: 0}
  - {x: 0, y: 0, z: 0, w: 0}
  - {x: 0, y: 0, z: 0, w: 0}
  - {x: 0, y: 0, z: 0, w: 0}
  - {x: 0, y: 0, z: 0, w: 0}
  - {x: 0, y: 0, z: 0, w: 0}
  - {x: 0, y: 0, z: 0, w: 0}
  - {x: 0, y: 0, z: 0, w: 0}
  - {x: 0, y: 0, z: 0, w: 0}
  orientations:
  - {x: 0, y: 0, z: 0, w: 1}
  - {x: 0, y: 0, z: 0, w: 1}
  - {x: 0, y: 0, z: 0, w: 1}
  - {x: 0, y: 0, z: 0, w: 1}
  - {x: 0, y: 0, z: 0, w: 1}
  - {x: 0, y: 0, z: 0, w: 1}
  - {x: 0, y: 0, z: 0, w: 1}
  - {x: 0, y: 0, z: 0, w: 1}
  - {x: 0, y: 0, z: 0, w: 1}
  - {x: 0, y: 0, z: 0, w: 1}
  - {x: 0, y: 0, z: 0, w: 1}
  - {x: 0, y: 0, z: 0, w: 1}
  - {x: 0, y: 0, z: 0, w: 1}
  - {x: 0, y: 0, z: 0, w: 1}
  - {x: 0, y: 0, z: 0, w: 1}
  - {x: 0, y: 0, z: 0, w: 1}
  - {x: 0, y: 0, z: 0, w: 1}
  - {x: 0, y: 0, z: 0, w: 1}
  - {x: 0, y: 0, z: 0, w: 1}
  - {x: 0, y: 0, z: 0, w: 1}
  - {x: 0, y: 0, z: 0, w: 1}
  - {x: 0, y: 0, z: 0, w: 1}
  - {x: 0, y: 0, z: 0, w: 1}
  - {x: 0, y: 0, z: 0, w: 1}
  - {x: 0, y: 0, z: 0, w: 1}
  - {x: 0, y: 0, z: 0, w: 1}
  - {x: 0, y: 0, z: 0, w: 1}
  - {x: 0, y: 0, z: 0, w: 1}
  - {x: 0, y: 0, z: 0, w: 1}
  - {x: 0, y: 0, z: 0, w: 1}
  - {x: 0, y: 0, z: 0, w: 1}
  - {x: 0, y: 0, z: 0, w: 1}
  - {x: 0, y: 0, z: 0, w: 1}
  - {x: 0, y: 0, z: 0, w: 1}
  - {x: 0, y: 0, z: 0, w: 1}
  - {x: 0, y: 0, z: 0, w: 1}
  - {x: 0, y: 0, z: 0, w: 1}
  - {x: 0, y: 0, z: 0, w: 1}
  - {x: 0, y: 0, z: 0, w: 1}
  - {x: 0, y: 0, z: 0, w: 1}
  - {x: 0, y: 0, z: 0, w: 1}
  - {x: 0, y: 0, z: 0, w: 1}
  - {x: 0, y: 0, z: 0, w: 1}
  - {x: 0, y: 0, z: 0, w: 1}
  - {x: 0, y: 0, z: 0, w: 1}
  - {x: 0, y: 0, z: 0, w: 1}
  - {x: 0, y: 0, z: 0, w: 1}
  - {x: 0, y: 0, z: 0, w: 1}
  - {x: 0, y: 0, z: 0, w: 1}
  - {x: 0, y: 0, z: 0, w: 1}
  - {x: 0, y: 0, z: 0, w: 1}
  - {x: 0, y: 0, z: 0, w: 1}
  - {x: 0, y: 0, z: 0, w: 1}
  - {x: 0, y: 0, z: 0, w: 1}
  - {x: 0, y: 0, z: 0, w: 1}
  - {x: 0, y: 0, z: 0, w: 1}
  - {x: 0, y: 0, z: 0, w: 1}
  - {x: 0, y: 0, z: 0, w: 1}
  - {x: 0, y: 0, z: 0, w: 1}
  - {x: 0, y: 0, z: 0, w: 1}
  - {x: 0, y: 0, z: 0, w: 1}
  - {x: 0, y: 0, z: 0, w: 1}
  - {x: 0, y: 0, z: 0, w: 1}
  - {x: 0, y: 0, z: 0, w: 1}
  - {x: 0, y: 0, z: 0, w: 1}
  - {x: 0, y: 0, z: 0, w: 1}
  - {x: 0, y: 0, z: 0, w: 1}
  - {x: 0, y: 0, z: 0, w: 1}
  - {x: 0, y: 0, z: 0, w: 1}
  - {x: 0, y: 0, z: 0, w: 1}
  - {x: 0, y: 0, z: 0, w: 1}
  - {x: 0, y: 0, z: 0, w: 1}
  - {x: 0, y: 0, z: 0, w: 1}
  - {x: 0, y: 0, z: 0, w: 1}
  - {x: 0, y: 0, z: 0, w: 1}
  - {x: 0, y: 0, z: 0, w: 1}
  - {x: 0, y: 0, z: 0, w: 1}
  - {x: 0, y: 0, z: 0, w: 1}
  - {x: 0, y: 0, z: 0, w: 1}
  - {x: 0, y: 0, z: 0, w: 1}
  - {x: 0, y: 0, z: 0, w: 1}
  - {x: 0, y: 0, z: 0, w: 1}
  - {x: 0, y: 0, z: 0, w: 1}
  - {x: 0, y: 0, z: 0, w: 1}
  - {x: 0, y: 0, z: 0, w: 1}
  - {x: 0, y: 0, z: 0, w: 1}
  - {x: 0, y: 0, z: 0, w: 1}
  - {x: 0, y: 0, z: 0, w: 1}
  - {x: 0, y: 0, z: 0, w: 1}
  - {x: 0, y: 0, z: 0, w: 1}
  - {x: 0, y: 0, z: 0, w: 1}
  - {x: 0, y: 0, z: 0, w: 1}
  - {x: 0, y: 0, z: 0, w: 1}
  - {x: 0, y: 0, z: 0, w: 1}
  - {x: 0, y: 0, z: 0, w: 1}
  - {x: 0, y: 0, z: 0, w: 1}
  - {x: 0, y: 0, z: 0, w: 1}
  - {x: 0, y: 0, z: 0, w: 1}
  - {x: 0, y: 0, z: 0, w: 1}
  - {x: 0, y: 0, z: 0, w: 1}
  restOrientations:
  - {x: 0, y: 0, z: 0, w: 1}
  - {x: 0, y: 0, z: 0, w: 1}
  - {x: 0, y: 0, z: 0, w: 1}
  - {x: 0, y: 0, z: 0, w: 1}
  - {x: 0, y: 0, z: 0, w: 1}
  - {x: 0, y: 0, z: 0, w: 1}
  - {x: 0, y: 0, z: 0, w: 1}
  - {x: 0, y: 0, z: 0, w: 1}
  - {x: 0, y: 0, z: 0, w: 1}
  - {x: 0, y: 0, z: 0, w: 1}
  - {x: 0, y: 0, z: 0, w: 1}
  - {x: 0, y: 0, z: 0, w: 1}
  - {x: 0, y: 0, z: 0, w: 1}
  - {x: 0, y: 0, z: 0, w: 1}
  - {x: 0, y: 0, z: 0, w: 1}
  - {x: 0, y: 0, z: 0, w: 1}
  - {x: 0, y: 0, z: 0, w: 1}
  - {x: 0, y: 0, z: 0, w: 1}
  - {x: 0, y: 0, z: 0, w: 1}
  - {x: 0, y: 0, z: 0, w: 1}
  - {x: 0, y: 0, z: 0, w: 1}
  - {x: 0, y: 0, z: 0, w: 1}
  - {x: 0, y: 0, z: 0, w: 1}
  - {x: 0, y: 0, z: 0, w: 1}
  - {x: 0, y: 0, z: 0, w: 1}
  - {x: 0, y: 0, z: 0, w: 1}
  - {x: 0, y: 0, z: 0, w: 1}
  - {x: 0, y: 0, z: 0, w: 1}
  - {x: 0, y: 0, z: 0, w: 1}
  - {x: 0, y: 0, z: 0, w: 1}
  - {x: 0, y: 0, z: 0, w: 1}
  - {x: 0, y: 0, z: 0, w: 1}
  - {x: 0, y: 0, z: 0, w: 1}
  - {x: 0, y: 0, z: 0, w: 1}
  - {x: 0, y: 0, z: 0, w: 1}
  - {x: 0, y: 0, z: 0, w: 1}
  - {x: 0, y: 0, z: 0, w: 1}
  - {x: 0, y: 0, z: 0, w: 1}
  - {x: 0, y: 0, z: 0, w: 1}
  - {x: 0, y: 0, z: 0, w: 1}
  - {x: 0, y: 0, z: 0, w: 1}
  - {x: 0, y: 0, z: 0, w: 1}
  - {x: 0, y: 0, z: 0, w: 1}
  - {x: 0, y: 0, z: 0, w: 1}
  - {x: 0, y: 0, z: 0, w: 1}
  - {x: 0, y: 0, z: 0, w: 1}
  - {x: 0, y: 0, z: 0, w: 1}
  - {x: 0, y: 0, z: 0, w: 1}
  - {x: 0, y: 0, z: 0, w: 1}
  - {x: 0, y: 0, z: 0, w: 1}
  - {x: 0, y: 0, z: 0, w: 1}
  - {x: 0, y: 0, z: 0, w: 1}
  - {x: 0, y: 0, z: 0, w: 1}
  - {x: 0, y: 0, z: 0, w: 1}
  - {x: 0, y: 0, z: 0, w: 1}
  - {x: 0, y: 0, z: 0, w: 1}
  - {x: 0, y: 0, z: 0, w: 1}
  - {x: 0, y: 0, z: 0, w: 1}
  - {x: 0, y: 0, z: 0, w: 1}
  - {x: 0, y: 0, z: 0, w: 1}
  - {x: 0, y: 0, z: 0, w: 1}
  - {x: 0, y: 0, z: 0, w: 1}
  - {x: 0, y: 0, z: 0, w: 1}
  - {x: 0, y: 0, z: 0, w: 1}
  - {x: 0, y: 0, z: 0, w: 1}
  - {x: 0, y: 0, z: 0, w: 1}
  - {x: 0, y: 0, z: 0, w: 1}
  - {x: 0, y: 0, z: 0, w: 1}
  - {x: 0, y: 0, z: 0, w: 1}
  - {x: 0, y: 0, z: 0, w: 1}
  - {x: 0, y: 0, z: 0, w: 1}
  - {x: 0, y: 0, z: 0, w: 1}
  - {x: 0, y: 0, z: 0, w: 1}
  - {x: 0, y: 0, z: 0, w: 1}
  - {x: 0, y: 0, z: 0, w: 1}
  - {x: 0, y: 0, z: 0, w: 1}
  - {x: 0, y: 0, z: 0, w: 1}
  - {x: 0, y: 0, z: 0, w: 1}
  - {x: 0, y: 0, z: 0, w: 1}
  - {x: 0, y: 0, z: 0, w: 1}
  - {x: 0, y: 0, z: 0, w: 1}
  - {x: 0, y: 0, z: 0, w: 1}
  - {x: 0, y: 0, z: 0, w: 1}
  - {x: 0, y: 0, z: 0, w: 1}
  - {x: 0, y: 0, z: 0, w: 1}
  - {x: 0, y: 0, z: 0, w: 1}
  - {x: 0, y: 0, z: 0, w: 1}
  - {x: 0, y: 0, z: 0, w: 1}
  - {x: 0, y: 0, z: 0, w: 1}
  - {x: 0, y: 0, z: 0, w: 1}
  - {x: 0, y: 0, z: 0, w: 1}
  - {x: 0, y: 0, z: 0, w: 1}
  - {x: 0, y: 0, z: 0, w: 1}
  - {x: 0, y: 0, z: 0, w: 1}
  - {x: 0, y: 0, z: 0, w: 1}
  - {x: 0, y: 0, z: 0, w: 1}
  - {x: 0, y: 0, z: 0, w: 1}
  - {x: 0, y: 0, z: 0, w: 1}
  - {x: 0, y: 0, z: 0, w: 1}
  - {x: 0, y: 0, z: 0, w: 1}
  velocities:
  - {x: 0, y: 0, z: 0}
  - {x: 0, y: 0, z: 0}
  - {x: 0, y: 0, z: 0}
  - {x: 0, y: 0, z: 0}
  - {x: 0, y: 0, z: 0}
  - {x: 0, y: 0, z: 0}
  - {x: 0, y: 0, z: 0}
  - {x: 0, y: 0, z: 0}
  - {x: 0, y: 0, z: 0}
  - {x: 0, y: 0, z: 0}
  - {x: 0, y: 0, z: 0}
  - {x: 0, y: 0, z: 0}
  - {x: 0, y: 0, z: 0}
  - {x: 0, y: 0, z: 0}
  - {x: 0, y: 0, z: 0}
  - {x: 0, y: 0, z: 0}
  - {x: 0, y: 0, z: 0}
  - {x: 0, y: 0, z: 0}
  - {x: 0, y: 0, z: 0}
  - {x: 0, y: 0, z: 0}
  - {x: 0, y: 0, z: 0}
  - {x: 0, y: 0, z: 0}
  - {x: 0, y: 0, z: 0}
  - {x: 0, y: 0, z: 0}
  - {x: 0, y: 0, z: 0}
  - {x: 0, y: 0, z: 0}
  - {x: 0, y: 0, z: 0}
  - {x: 0, y: 0, z: 0}
  - {x: 0, y: 0, z: 0}
  - {x: 0, y: 0, z: 0}
  - {x: 0, y: 0, z: 0}
  - {x: 0, y: 0, z: 0}
  - {x: 0, y: 0, z: 0}
  - {x: 0, y: 0, z: 0}
  - {x: 0, y: 0, z: 0}
  - {x: 0, y: 0, z: 0}
  - {x: 0, y: 0, z: 0}
  - {x: 0, y: 0, z: 0}
  - {x: 0, y: 0, z: 0}
  - {x: 0, y: 0, z: 0}
  - {x: 0, y: 0, z: 0}
  - {x: 0, y: 0, z: 0}
  - {x: 0, y: 0, z: 0}
  - {x: 0, y: 0, z: 0}
  - {x: 0, y: 0, z: 0}
  - {x: 0, y: 0, z: 0}
  - {x: 0, y: 0, z: 0}
  - {x: 0, y: 0, z: 0}
  - {x: 0, y: 0, z: 0}
  - {x: 0, y: 0, z: 0}
  - {x: 0, y: 0, z: 0}
  - {x: 0, y: 0, z: 0}
  - {x: 0, y: 0, z: 0}
  - {x: 0, y: 0, z: 0}
  - {x: 0, y: 0, z: 0}
  - {x: 0, y: 0, z: 0}
  - {x: 0, y: 0, z: 0}
  - {x: 0, y: 0, z: 0}
  - {x: 0, y: 0, z: 0}
  - {x: 0, y: 0, z: 0}
  - {x: 0, y: 0, z: 0}
  - {x: 0, y: 0, z: 0}
  - {x: 0, y: 0, z: 0}
  - {x: 0, y: 0, z: 0}
  - {x: 0, y: 0, z: 0}
  - {x: 0, y: 0, z: 0}
  - {x: 0, y: 0, z: 0}
  - {x: 0, y: 0, z: 0}
  - {x: 0, y: 0, z: 0}
  - {x: 0, y: 0, z: 0}
  - {x: 0, y: 0, z: 0}
  - {x: 0, y: 0, z: 0}
  - {x: 0, y: 0, z: 0}
  - {x: 0, y: 0, z: 0}
  - {x: 0, y: 0, z: 0}
  - {x: 0, y: 0, z: 0}
  - {x: 0, y: 0, z: 0}
  - {x: 0, y: 0, z: 0}
  - {x: 0, y: 0, z: 0}
  - {x: 0, y: 0, z: 0}
  - {x: 0, y: 0, z: 0}
  - {x: 0, y: 0, z: 0}
  - {x: 0, y: 0, z: 0}
  - {x: 0, y: 0, z: 0}
  - {x: 0, y: 0, z: 0}
  - {x: 0, y: 0, z: 0}
  - {x: 0, y: 0, z: 0}
  - {x: 0, y: 0, z: 0}
  - {x: 0, y: 0, z: 0}
  - {x: 0, y: 0, z: 0}
  - {x: 0, y: 0, z: 0}
  - {x: 0, y: 0, z: 0}
  - {x: 0, y: 0, z: 0}
  - {x: 0, y: 0, z: 0}
  - {x: 0, y: 0, z: 0}
  - {x: 0, y: 0, z: 0}
  - {x: 0, y: 0, z: 0}
  - {x: 0, y: 0, z: 0}
  - {x: 0, y: 0, z: 0}
  - {x: 0, y: 0, z: 0}
  angularVelocities:
  - {x: 0, y: 0, z: 0}
  - {x: 0, y: 0, z: 0}
  - {x: 0, y: 0, z: 0}
  - {x: 0, y: 0, z: 0}
  - {x: 0, y: 0, z: 0}
  - {x: 0, y: 0, z: 0}
  - {x: 0, y: 0, z: 0}
  - {x: 0, y: 0, z: 0}
  - {x: 0, y: 0, z: 0}
  - {x: 0, y: 0, z: 0}
  - {x: 0, y: 0, z: 0}
  - {x: 0, y: 0, z: 0}
  - {x: 0, y: 0, z: 0}
  - {x: 0, y: 0, z: 0}
  - {x: 0, y: 0, z: 0}
  - {x: 0, y: 0, z: 0}
  - {x: 0, y: 0, z: 0}
  - {x: 0, y: 0, z: 0}
  - {x: 0, y: 0, z: 0}
  - {x: 0, y: 0, z: 0}
  - {x: 0, y: 0, z: 0}
  - {x: 0, y: 0, z: 0}
  - {x: 0, y: 0, z: 0}
  - {x: 0, y: 0, z: 0}
  - {x: 0, y: 0, z: 0}
  - {x: 0, y: 0, z: 0}
  - {x: 0, y: 0, z: 0}
  - {x: 0, y: 0, z: 0}
  - {x: 0, y: 0, z: 0}
  - {x: 0, y: 0, z: 0}
  - {x: 0, y: 0, z: 0}
  - {x: 0, y: 0, z: 0}
  - {x: 0, y: 0, z: 0}
  - {x: 0, y: 0, z: 0}
  - {x: 0, y: 0, z: 0}
  - {x: 0, y: 0, z: 0}
  - {x: 0, y: 0, z: 0}
  - {x: 0, y: 0, z: 0}
  - {x: 0, y: 0, z: 0}
  - {x: 0, y: 0, z: 0}
  - {x: 0, y: 0, z: 0}
  - {x: 0, y: 0, z: 0}
  - {x: 0, y: 0, z: 0}
  - {x: 0, y: 0, z: 0}
  - {x: 0, y: 0, z: 0}
  - {x: 0, y: 0, z: 0}
  - {x: 0, y: 0, z: 0}
  - {x: 0, y: 0, z: 0}
  - {x: 0, y: 0, z: 0}
  - {x: 0, y: 0, z: 0}
  - {x: 0, y: 0, z: 0}
  - {x: 0, y: 0, z: 0}
  - {x: 0, y: 0, z: 0}
  - {x: 0, y: 0, z: 0}
  - {x: 0, y: 0, z: 0}
  - {x: 0, y: 0, z: 0}
  - {x: 0, y: 0, z: 0}
  - {x: 0, y: 0, z: 0}
  - {x: 0, y: 0, z: 0}
  - {x: 0, y: 0, z: 0}
  - {x: 0, y: 0, z: 0}
  - {x: 0, y: 0, z: 0}
  - {x: 0, y: 0, z: 0}
  - {x: 0, y: 0, z: 0}
  - {x: 0, y: 0, z: 0}
  - {x: 0, y: 0, z: 0}
  - {x: 0, y: 0, z: 0}
  - {x: 0, y: 0, z: 0}
  - {x: 0, y: 0, z: 0}
  - {x: 0, y: 0, z: 0}
  - {x: 0, y: 0, z: 0}
  - {x: 0, y: 0, z: 0}
  - {x: 0, y: 0, z: 0}
  - {x: 0, y: 0, z: 0}
  - {x: 0, y: 0, z: 0}
  - {x: 0, y: 0, z: 0}
  - {x: 0, y: 0, z: 0}
  - {x: 0, y: 0, z: 0}
  - {x: 0, y: 0, z: 0}
  - {x: 0, y: 0, z: 0}
  - {x: 0, y: 0, z: 0}
  - {x: 0, y: 0, z: 0}
  - {x: 0, y: 0, z: 0}
  - {x: 0, y: 0, z: 0}
  - {x: 0, y: 0, z: 0}
  - {x: 0, y: 0, z: 0}
  - {x: 0, y: 0, z: 0}
  - {x: 0, y: 0, z: 0}
  - {x: 0, y: 0, z: 0}
  - {x: 0, y: 0, z: 0}
  - {x: 0, y: 0, z: 0}
  - {x: 0, y: 0, z: 0}
  - {x: 0, y: 0, z: 0}
  - {x: 0, y: 0, z: 0}
  - {x: 0, y: 0, z: 0}
  - {x: 0, y: 0, z: 0}
  - {x: 0, y: 0, z: 0}
  - {x: 0, y: 0, z: 0}
  - {x: 0, y: 0, z: 0}
  - {x: 0, y: 0, z: 0}
  invMasses:
  - 1
  - 1
  - 1
  - 1
  - 1
  - 1
  - 1
  - 1
  - 1
  - 1
  - 1
  - 1
  - 1
  - 1
  - 1
  - 1
  - 1
  - 1
  - 1
  - 1
  - 1
  - 1
  - 1
  - 1
  - 1
  - 1
  - 1
  - 1
  - 1
  - 1
  - 1
  - 1
  - 1
  - 1
  - 1
  - 1
  - 1
  - 1
  - 1
  - 1
  - 1
  - 1
  - 1
  - 1
  - 1
  - 1
  - 1
  - 1
  - 1
  - 1
  - 1
  - 1
  - 1
  - 1
  - 1
  - 1
  - 1
  - 1
  - 1
  - 1
  - 1
  - 1
  - 1
  - 1
  - 1
  - 1
  - 1
  - 1
  - 1
  - 1
  - 1
  - 1
  - 1
  - 1
  - 1
  - 1
  - 1
  - 1
  - 1
  - 1
  - 1
  - 1
  - 1
  - 1
  - 1
  - 1
  - 1
  - 1
  - 1
  - 1
  - 1
  - 1
  - 1
  - 1
  - 1
  - 1
  - 1
  - 1
  - 1
  - 1
  invRotationalMasses:
  - 1
  - 1
  - 1
  - 1
  - 1
  - 1
  - 1
  - 1
  - 1
  - 1
  - 1
  - 1
  - 1
  - 1
  - 1
  - 1
  - 1
  - 1
  - 1
  - 1
  - 1
  - 1
  - 1
  - 1
  - 1
  - 1
  - 1
  - 1
  - 1
  - 1
  - 1
  - 1
  - 1
  - 1
  - 1
  - 1
  - 1
  - 1
  - 1
  - 1
  - 1
  - 1
  - 1
  - 1
  - 1
  - 1
  - 1
  - 1
  - 1
  - 1
  - 1
  - 1
  - 1
  - 1
  - 1
  - 1
  - 1
  - 1
  - 1
  - 1
  - 1
  - 1
  - 1
  - 1
  - 1
  - 1
  - 1
  - 1
  - 1
  - 1
  - 1
  - 1
  - 1
  - 1
  - 1
  - 1
  - 1
  - 1
  - 1
  - 1
  - 1
  - 1
  - 1
  - 1
  - 1
  - 1
  - 1
  - 1
  - 1
  - 1
  - 1
  - 1
  - 1
  - 1
  - 1
  - 1
  - 1
  - 1
  - 1
  - 1
  filters: 0200ffff0200ffff0200ffff0200ffff0200ffff0200ffff0200ffff0200ffff0200ffff0200ffff0200ffff0200ffff0200ffff0200ffff0200ffff0200ffff0200ffff0200ffff0200ffff0200ffff0200ffff0200ffff0200ffff0200ffff0200ffff0200ffff0200ffff0200ffff0200ffff0200ffff0200ffff0200ffff0200ffff0200ffff0200ffff0200ffff0200ffff0200ffff0200ffff0200ffff0200ffff0200ffff0200ffff0200ffff0200ffff0200ffff0200ffff0200ffff0200ffff0200ffff0200ffff0200ffff0200ffff0200ffff0200ffff0200ffff0200ffff0200ffff0200ffff0200ffff0200ffff0200ffff0200ffff0200ffff0200ffff0200ffff0200ffff0200ffff0200ffff0200ffff0200ffff0200ffff0200ffff0200ffff0200ffff0200ffff0200ffff0200ffff0200ffff0200ffff0200ffff0200ffff0200ffff0200ffff0200ffff0200ffff0200ffff0200ffff0200ffff0200ffff0200ffff0200ffff0200ffff0200ffff0200ffff0200ffff0200ffff0200ffff0200ffff0200ffff
  principalRadii:
  - {x: 1, y: 1, z: 1}
  - {x: 1, y: 1, z: 1}
  - {x: 1, y: 1, z: 1}
  - {x: 1, y: 1, z: 1}
  - {x: 1, y: 1, z: 1}
  - {x: 1, y: 1, z: 1}
  - {x: 1, y: 1, z: 1}
  - {x: 1, y: 1, z: 1}
  - {x: 1, y: 1, z: 1}
  - {x: 1, y: 1, z: 1}
  - {x: 1, y: 1, z: 1}
  - {x: 1, y: 1, z: 1}
  - {x: 1, y: 1, z: 1}
  - {x: 1, y: 1, z: 1}
  - {x: 1, y: 1, z: 1}
  - {x: 1, y: 1, z: 1}
  - {x: 1, y: 1, z: 1}
  - {x: 1, y: 1, z: 1}
  - {x: 1, y: 1, z: 1}
  - {x: 1, y: 1, z: 1}
  - {x: 1, y: 1, z: 1}
  - {x: 1, y: 1, z: 1}
  - {x: 1, y: 1, z: 1}
  - {x: 1, y: 1, z: 1}
  - {x: 1, y: 1, z: 1}
  - {x: 1, y: 1, z: 1}
  - {x: 1, y: 1, z: 1}
  - {x: 1, y: 1, z: 1}
  - {x: 1, y: 1, z: 1}
  - {x: 1, y: 1, z: 1}
  - {x: 1, y: 1, z: 1}
  - {x: 1, y: 1, z: 1}
  - {x: 1, y: 1, z: 1}
  - {x: 1, y: 1, z: 1}
  - {x: 1, y: 1, z: 1}
  - {x: 1, y: 1, z: 1}
  - {x: 1, y: 1, z: 1}
  - {x: 1, y: 1, z: 1}
  - {x: 1, y: 1, z: 1}
  - {x: 1, y: 1, z: 1}
  - {x: 1, y: 1, z: 1}
  - {x: 1, y: 1, z: 1}
  - {x: 1, y: 1, z: 1}
  - {x: 1, y: 1, z: 1}
  - {x: 1, y: 1, z: 1}
  - {x: 1, y: 1, z: 1}
  - {x: 1, y: 1, z: 1}
  - {x: 1, y: 1, z: 1}
  - {x: 1, y: 1, z: 1}
  - {x: 1, y: 1, z: 1}
  - {x: 1, y: 1, z: 1}
  - {x: 1, y: 1, z: 1}
  - {x: 1, y: 1, z: 1}
  - {x: 1, y: 1, z: 1}
  - {x: 1, y: 1, z: 1}
  - {x: 1, y: 1, z: 1}
  - {x: 1, y: 1, z: 1}
  - {x: 1, y: 1, z: 1}
  - {x: 1, y: 1, z: 1}
  - {x: 1, y: 1, z: 1}
  - {x: 1, y: 1, z: 1}
  - {x: 1, y: 1, z: 1}
  - {x: 1, y: 1, z: 1}
  - {x: 1, y: 1, z: 1}
  - {x: 1, y: 1, z: 1}
  - {x: 1, y: 1, z: 1}
  - {x: 1, y: 1, z: 1}
  - {x: 1, y: 1, z: 1}
  - {x: 1, y: 1, z: 1}
  - {x: 1, y: 1, z: 1}
  - {x: 1, y: 1, z: 1}
  - {x: 1, y: 1, z: 1}
  - {x: 1, y: 1, z: 1}
  - {x: 1, y: 1, z: 1}
  - {x: 1, y: 1, z: 1}
  - {x: 1, y: 1, z: 1}
  - {x: 1, y: 1, z: 1}
  - {x: 1, y: 1, z: 1}
  - {x: 1, y: 1, z: 1}
  - {x: 1, y: 1, z: 1}
  - {x: 1, y: 1, z: 1}
  - {x: 1, y: 1, z: 1}
  - {x: 1, y: 1, z: 1}
  - {x: 1, y: 1, z: 1}
  - {x: 1, y: 1, z: 1}
  - {x: 1, y: 1, z: 1}
  - {x: 1, y: 1, z: 1}
  - {x: 1, y: 1, z: 1}
  - {x: 1, y: 1, z: 1}
  - {x: 1, y: 1, z: 1}
  - {x: 1, y: 1, z: 1}
  - {x: 1, y: 1, z: 1}
  - {x: 1, y: 1, z: 1}
  - {x: 1, y: 1, z: 1}
  - {x: 1, y: 1, z: 1}
  - {x: 1, y: 1, z: 1}
  - {x: 1, y: 1, z: 1}
  - {x: 1, y: 1, z: 1}
  - {x: 1, y: 1, z: 1}
  - {x: 1, y: 1, z: 1}
  colors:
  - {r: 1, g: 1, b: 1, a: 1}
  - {r: 1, g: 1, b: 1, a: 1}
  - {r: 1, g: 1, b: 1, a: 1}
  - {r: 1, g: 1, b: 1, a: 1}
  - {r: 1, g: 1, b: 1, a: 1}
  - {r: 1, g: 1, b: 1, a: 1}
  - {r: 1, g: 1, b: 1, a: 1}
  - {r: 1, g: 1, b: 1, a: 1}
  - {r: 1, g: 1, b: 1, a: 1}
  - {r: 1, g: 1, b: 1, a: 1}
  - {r: 1, g: 1, b: 1, a: 1}
  - {r: 1, g: 1, b: 1, a: 1}
  - {r: 1, g: 1, b: 1, a: 1}
  - {r: 1, g: 1, b: 1, a: 1}
  - {r: 1, g: 1, b: 1, a: 1}
  - {r: 1, g: 1, b: 1, a: 1}
  - {r: 1, g: 1, b: 1, a: 1}
  - {r: 1, g: 1, b: 1, a: 1}
  - {r: 1, g: 1, b: 1, a: 1}
  - {r: 1, g: 1, b: 1, a: 1}
  - {r: 1, g: 1, b: 1, a: 1}
  - {r: 1, g: 1, b: 1, a: 1}
  - {r: 1, g: 1, b: 1, a: 1}
  - {r: 1, g: 1, b: 1, a: 1}
  - {r: 1, g: 1, b: 1, a: 1}
  - {r: 1, g: 1, b: 1, a: 1}
  - {r: 1, g: 1, b: 1, a: 1}
  - {r: 1, g: 1, b: 1, a: 1}
  - {r: 1, g: 1, b: 1, a: 1}
  - {r: 1, g: 1, b: 1, a: 1}
  - {r: 1, g: 1, b: 1, a: 1}
  - {r: 1, g: 1, b: 1, a: 1}
  - {r: 1, g: 1, b: 1, a: 1}
  - {r: 1, g: 1, b: 1, a: 1}
  - {r: 1, g: 1, b: 1, a: 1}
  - {r: 1, g: 1, b: 1, a: 1}
  - {r: 1, g: 1, b: 1, a: 1}
  - {r: 1, g: 1, b: 1, a: 1}
  - {r: 1, g: 1, b: 1, a: 1}
  - {r: 1, g: 1, b: 1, a: 1}
  - {r: 1, g: 1, b: 1, a: 1}
  - {r: 1, g: 1, b: 1, a: 1}
  - {r: 1, g: 1, b: 1, a: 1}
  - {r: 1, g: 1, b: 1, a: 1}
  - {r: 1, g: 1, b: 1, a: 1}
  - {r: 1, g: 1, b: 1, a: 1}
  - {r: 1, g: 1, b: 1, a: 1}
  - {r: 1, g: 1, b: 1, a: 1}
  - {r: 1, g: 1, b: 1, a: 1}
  - {r: 1, g: 1, b: 1, a: 1}
  - {r: 1, g: 1, b: 1, a: 1}
  - {r: 1, g: 1, b: 1, a: 1}
  - {r: 1, g: 1, b: 1, a: 1}
  - {r: 1, g: 1, b: 1, a: 1}
  - {r: 1, g: 1, b: 1, a: 1}
  - {r: 1, g: 1, b: 1, a: 1}
  - {r: 1, g: 1, b: 1, a: 1}
  - {r: 1, g: 1, b: 1, a: 1}
  - {r: 1, g: 1, b: 1, a: 1}
  - {r: 1, g: 1, b: 1, a: 1}
  - {r: 1, g: 1, b: 1, a: 1}
  - {r: 1, g: 1, b: 1, a: 1}
  - {r: 1, g: 1, b: 1, a: 1}
  - {r: 1, g: 1, b: 1, a: 1}
  - {r: 1, g: 1, b: 1, a: 1}
  - {r: 1, g: 1, b: 1, a: 1}
  - {r: 1, g: 1, b: 1, a: 1}
  - {r: 1, g: 1, b: 1, a: 1}
  - {r: 1, g: 1, b: 1, a: 1}
  - {r: 1, g: 1, b: 1, a: 1}
  - {r: 1, g: 1, b: 1, a: 1}
  - {r: 1, g: 1, b: 1, a: 1}
  - {r: 1, g: 1, b: 1, a: 1}
  - {r: 1, g: 1, b: 1, a: 1}
  - {r: 1, g: 1, b: 1, a: 1}
  - {r: 1, g: 1, b: 1, a: 1}
  - {r: 1, g: 1, b: 1, a: 1}
  - {r: 1, g: 1, b: 1, a: 1}
  - {r: 1, g: 1, b: 1, a: 1}
  - {r: 1, g: 1, b: 1, a: 1}
  - {r: 1, g: 1, b: 1, a: 1}
  - {r: 1, g: 1, b: 1, a: 1}
  - {r: 1, g: 1, b: 1, a: 1}
  - {r: 1, g: 1, b: 1, a: 1}
  - {r: 1, g: 1, b: 1, a: 1}
  - {r: 1, g: 1, b: 1, a: 1}
  - {r: 1, g: 1, b: 1, a: 1}
  - {r: 1, g: 1, b: 1, a: 1}
  - {r: 1, g: 1, b: 1, a: 1}
  - {r: 1, g: 1, b: 1, a: 1}
  - {r: 1, g: 1, b: 1, a: 1}
  - {r: 1, g: 1, b: 1, a: 1}
  - {r: 1, g: 1, b: 1, a: 1}
  - {r: 1, g: 1, b: 1, a: 1}
  - {r: 1, g: 1, b: 1, a: 1}
  - {r: 1, g: 1, b: 1, a: 1}
  - {r: 1, g: 1, b: 1, a: 1}
  - {r: 1, g: 1, b: 1, a: 1}
  - {r: 1, g: 1, b: 1, a: 1}
  - {r: 1, g: 1, b: 1, a: 1}
  points: 
  edges: 
  triangles: 
  distanceConstraintsData:
    batches: []
  bendConstraintsData:
    batches: []
  skinConstraintsData:
    batches: []
  tetherConstraintsData:
    batches: []
  stretchShearConstraintsData:
    batches: []
  bendTwistConstraintsData:
    batches: []
  shapeMatchingConstraintsData:
    batches: []
  aerodynamicConstraintsData:
    batches: []
  chainConstraintsData:
    batches: []
  volumeConstraintsData:
    batches: []
  groups: []
  capacity: 100
  resolution: 0.5
  restDensity: 100
  smoothing: 2
  viscosity: 0.05
  surfaceTension: 1
  buoyancy: -1
  atmosphericDrag: 1
  atmosphericPressure: 0
  vorticity: 0
  diffusion: 0
  diffusionData: {x: 0, y: 0, z: 0, w: 0}
