%YAML 1.1
%TAG !u! tag:unity3d.com,2011:
--- !u!1045 &1
EditorBuildSettings:
  m_ObjectHideFlags: 0
  serializedVersion: 2
  m_Scenes:
  - enabled: 1
    path: Assets/Scenes/General.unity
    guid: eb02f6f0644affa40a25fdba5aebbf30
  - enabled: 1
    path: Assets/Scenes/Level_1.unity
    guid: 997f4d9c66a66e744958cf2c0798dbbc
  - enabled: 1
    path: Assets/Scenes/Level_2.unity
    guid: 186a89b576e27a74690c4062c7c34760
  - enabled: 1
    path: Assets/Scenes/Level_3.unity
    guid: e19f2bd8dcf2f1247a18902f4e32523b
  - enabled: 1
    path: Assets/Scenes/Level_4.unity
    guid: d2b829d6b3f25154da8df7d595ac35db
  - enabled: 1
    path: Assets/Scenes/Level_5.unity
    guid: 30b0189f09da980468275ffca73e0686
  m_configObjects: {}
